project1_src/result.vcd
$date
	Thu Dec  8 05:13:58 2016
$end
$version
	Icarus Verilog
$end
$timescale
	1s
$end
$scope module TestBench $end
$var reg 1 ! Clk $end
$var reg 1 " Reset $end
$var reg 1 # Start $end
$var integer 32 $ counter [31:0] $end
$var integer 32 % flush [31:0] $end
$var integer 32 & i [31:0] $end
$var integer 32 ' outfile [31:0] $end
$var integer 32 ( stall [31:0] $end
$scope module CPU $end
$var wire 1 ) branch_flag $end
$var wire 1 ! clk_i $end
$var wire 1 * clk_w $end
$var wire 1 + flush $end
$var wire 1 " rst_i $end
$var wire 1 # start_i $end
$var wire 32 , mux7Write [31:0] $end
$var wire 32 - mux6ALU [31:0] $end
$var wire 32 . mux4ALU [31:0] $end
$var wire 5 / mux3EXMEM [4:0] $end
$var wire 32 0 mux1Out [31:0] $end
$var wire 1 1 memWrite $end
$var wire 1 2 memRead $end
$var wire 1 3 jump_flag $end
$var wire 32 4 inst_addr [31:0] $end
$var wire 32 5 inst [31:0] $end
$var wire 32 6 extended [31:0] $end
$var wire 8 7 cm8 [7:0] $end
$var wire 1 8 branch_flagT $end
$var wire 32 9 am1 [31:0] $end
$var wire 5 : WB_mux3 [4:0] $end
$var wire 2 ; WB_memState [1:0] $end
$var wire 2 < WB_WBState [1:0] $end
$var wire 1 = PCWrite $end
$var wire 32 > MUX_7Out [31:0] $end
$var wire 32 ? MUX_5Out [31:0] $end
$var wire 8 @ MUX8_data [7:0] $end
$var wire 5 A MEM_mux3 [4:0] $end
$var wire 32 B MEM_ALUOut [31:0] $end
$var wire 32 C JUMP_Addr [31:0] $end
$var wire 1 D IFIDWrite $end
$var wire 5 E IERt [4:0] $end
$var wire 5 F IERs [4:0] $end
$var wire 32 G ID_rt [31:0] $end
$var wire 32 H ID_rs [31:0] $end
$var wire 32 I ID_addr [31:0] $end
$var wire 1 J HazardMUX_8 $end
$var wire 1 K Eq_flag $end
$var wire 32 L EX_extend [31:0] $end
$var wire 2 M EX_WB [1:0] $end
$var wire 5 N EX_Rt [4:0] $end
$var wire 2 O EX_M [1:0] $end
$var wire 32 P Add_pc_o [31:0] $end
$scope module ADD $end
$var wire 32 Q data_o [31:0] $end
$var wire 32 R data2_in [31:0] $end
$var wire 32 S data1_in [31:0] $end
$upscope $end
$scope module ALU $end
$var wire 32 T data_o [31:0] $end
$var wire 32 U data2_i [31:0] $end
$var wire 32 V data1_i [31:0] $end
$var wire 3 W ALUCtrl_i [2:0] $end
$var reg 32 X result_temp [31:0] $end
$upscope $end
$scope module ALU_Control $end
$var wire 3 Y ALUCtrl_o [2:0] $end
$var wire 6 Z funct_i [5:0] $end
$var wire 2 [ ALUOp_i [1:0] $end
$var reg 3 \ aluCtrl_temp [2:0] $end
$upscope $end
$scope module Add_PC $end
$var wire 32 ] data2_in [31:0] $end
$var wire 32 ^ data_o [31:0] $end
$var wire 32 _ data1_in [31:0] $end
$upscope $end
$scope module Control $end
$var wire 1 * clk_i $end
$var wire 32 ` data_in [31:0] $end
$var reg 1 8 branch $end
$var reg 8 a data_out [7:0] $end
$var reg 1 3 jump $end
$upscope $end
$scope module DataMemory $end
$var wire 1 ! clk_i $end
$var wire 8 b memory_o [7:0] $end
$var wire 1 1 memWrite_i $end
$var wire 1 2 memRead_i $end
$var wire 32 c WriteData_i [31:0] $end
$var wire 32 d ALUOut_i [31:0] $end
$var reg 32 e ReadData_o [31:0] $end
$upscope $end
$scope module EX_MEM $end
$var wire 32 f ALUOut_i [31:0] $end
$var wire 1 ! clk_i $end
$var wire 32 g mux7_i [31:0] $end
$var wire 5 h mux3_i [4:0] $end
$var wire 2 i WB_i [1:0] $end
$var wire 2 j MEM_i [1:0] $end
$var reg 32 k ALUOut_o [31:0] $end
$var reg 1 2 MemRead_o $end
$var reg 1 1 MemWrite_o $end
$var reg 2 l WB_o [1:0] $end
$var reg 5 m mux3_o [4:0] $end
$var reg 32 n mux7_o [31:0] $end
$upscope $end
$scope module ForwardingUnit $end
$var wire 5 o EX_MEM_RegRd_i [4:0] $end
$var wire 1 p EX_MEM_regWrite_i $end
$var wire 2 q ForwardA_o [1:0] $end
$var wire 2 r ForwardB_o [1:0] $end
$var wire 1 s MEM_WB_regWrite_i $end
$var wire 5 t MEM_WB_RegRd_i [4:0] $end
$var wire 5 u ID_EX_RegRt [4:0] $end
$var wire 5 v ID_EX_RegRs [4:0] $end
$var reg 2 w fa_temp [1:0] $end
$var reg 2 x fb_temp [1:0] $end
$upscope $end
$scope module HazardDetection $end
$var wire 1 y IDEX_MemRead_i $end
$var wire 1 ! clk_i $end
$var wire 32 z instr_i [31:0] $end
$var wire 5 { IDEX_RegisterRt_i [4:0] $end
$var reg 1 D IFIDWrite_o $end
$var reg 1 J MUX8_o $end
$var reg 1 = PCWrite_o $end
$upscope $end
$scope module ID_EX $end
$var wire 1 ! clk_i $end
$var wire 4 | ctrl_EX_i [3:0] $end
$var wire 2 } ctrl_M_i [1:0] $end
$var wire 2 ~ ctrl_WB_i [1:0] $end
$var wire 5 !" instr1115_i [4:0] $end
$var wire 5 "" instr1620_FW_i [4:0] $end
$var wire 5 #" instr1620_MUX_i [4:0] $end
$var wire 5 $" instr2125_i [4:0] $end
$var wire 32 %" sign_extend_i [31:0] $end
$var wire 32 &" RT_data_i [31:0] $end
$var wire 32 '" RS_data_i [31:0] $end
$var reg 2 (" ALUOp_o [1:0] $end
$var reg 1 )" ALUSrc_o $end
$var reg 32 *" RS_data_o [31:0] $end
$var reg 32 +" RT_data_o [31:0] $end
$var reg 1 ," RegDst_o $end
$var reg 2 -" ctrl_M_o [1:0] $end
$var reg 2 ." ctrl_WB_o [1:0] $end
$var reg 5 /" instr1115_o [4:0] $end
$var reg 5 0" instr1620_FW_o [4:0] $end
$var reg 5 1" instr1620_MUX_o [4:0] $end
$var reg 5 2" instr2125_o [4:0] $end
$var reg 32 3" sign_extend_o [31:0] $end
$upscope $end
$scope module IF_ID $end
$var wire 1 D IFIDWrite_i $end
$var wire 32 4" addr_i [31:0] $end
$var wire 1 ! clk_i $end
$var wire 1 + flush_i $end
$var wire 32 5" instr_i [31:0] $end
$var reg 32 6" addr_o [31:0] $end
$var reg 32 7" instr_o [31:0] $end
$upscope $end
$scope module Instruction_Memory $end
$var wire 32 8" instr_o [31:0] $end
$var wire 32 9" addr_i [31:0] $end
$upscope $end
$scope module MEM_WB $end
$var wire 32 :" ReadData_i [31:0] $end
$var wire 2 ;" WB_i [1:0] $end
$var wire 1 ! clk_i $end
$var wire 32 <" immed_i [31:0] $end
$var wire 5 =" mux3_i [4:0] $end
$var reg 32 >" ReadData_o [31:0] $end
$var reg 2 ?" WB_o [1:0] $end
$var reg 32 @" immed_o [31:0] $end
$var reg 5 A" mux3_o [4:0] $end
$upscope $end
$scope module MUX_1 $end
$var wire 32 B" data1_i [31:0] $end
$var wire 32 C" data2_i [31:0] $end
$var wire 1 ) select_i $end
$var reg 32 D" data_o [31:0] $end
$upscope $end
$scope module MUX_2 $end
$var wire 32 E" data1_i [31:0] $end
$var wire 32 F" data2_i [31:0] $end
$var wire 1 3 select_i $end
$var reg 32 G" data_o [31:0] $end
$upscope $end
$scope module MUX_3 $end
$var wire 5 H" data1_i [4:0] $end
$var wire 5 I" data2_i [4:0] $end
$var wire 1 ," select_i $end
$var reg 5 J" data_o [4:0] $end
$upscope $end
$scope module MUX_4 $end
$var wire 32 K" data2_i [31:0] $end
$var wire 1 )" select_i $end
$var wire 32 L" data1_i [31:0] $end
$var reg 32 M" data_o [31:0] $end
$upscope $end
$scope module MUX_5 $end
$var wire 32 N" data1_i [31:0] $end
$var wire 32 O" data2_i [31:0] $end
$var wire 1 P" select_i $end
$var reg 32 Q" data_o [31:0] $end
$upscope $end
$scope module MUX_6 $end
$var wire 32 R" data1_i [31:0] $end
$var wire 32 S" data2_i [31:0] $end
$var wire 32 T" data3_i [31:0] $end
$var wire 2 U" select_i [1:0] $end
$var reg 32 V" data_o [31:0] $end
$upscope $end
$scope module MUX_7 $end
$var wire 32 W" data1_i [31:0] $end
$var wire 32 X" data2_i [31:0] $end
$var wire 32 Y" data3_i [31:0] $end
$var wire 2 Z" select_i [1:0] $end
$var reg 32 [" data_o [31:0] $end
$upscope $end
$scope module MUX_8 $end
$var wire 8 \" data1_i [7:0] $end
$var wire 8 ]" data2_i [7:0] $end
$var wire 1 J select_i $end
$var reg 8 ^" data_o [7:0] $end
$upscope $end
$scope module PC $end
$var wire 1 = PCWrite_i $end
$var wire 1 * clk_i $end
$var wire 32 _" pc_i [31:0] $end
$var wire 1 " rst_i $end
$var wire 1 # start_i $end
$var reg 32 `" pc_o [31:0] $end
$upscope $end
$scope module Registers $end
$var wire 5 a" RDaddr_i [4:0] $end
$var wire 32 b" RDdata_i [31:0] $end
$var wire 5 c" RSaddr_i [4:0] $end
$var wire 32 d" RSdata_o [31:0] $end
$var wire 5 e" RTaddr_i [4:0] $end
$var wire 32 f" RTdata_o [31:0] $end
$var wire 1 g" RegWrite_i $end
$var wire 1 ! clk_i $end
$upscope $end
$scope module Sign_Extend $end
$var wire 16 h" data_i [15:0] $end
$var wire 32 i" data_o [31:0] $end
$upscope $end
$scope module shiftLeft2_26 $end
$var wire 1 ! clk_i $end
$var wire 26 j" data_i [25:0] $end
$var reg 28 k" data_o [27:0] $end
$upscope $end
$scope module shiftLeft2_32 $end
$var wire 32 l" data_i [31:0] $end
$var wire 32 m" data_o [31:0] $end
$upscope $end
$upscope $end
$upscope $end
$enddefinitions $end
#0
$dumpvars
bx00 m"
bx l"
bx00 k"
bx j"
bx i"
bx h"
xg"
bx f"
bx e"
bx d"
bx c"
bx b"
bx a"
b0 `"
b100 _"
bx ^"
b0 ]"
bx \"
bx ["
bx Z"
bx Y"
bx X"
bx W"
bx V"
bx U"
bx T"
bx S"
bx R"
bx Q"
xP"
bx O"
bx N"
bx M"
bx L"
bx K"
bx J"
bx I"
bx H"
b100 G"
b0xxxxxxxxxxxxxxxxxxxxxxxxxx00 F"
b100 E"
b100 D"
bx C"
b100 B"
bx A"
bx @"
bx ?"
bx >"
bx ="
bx <"
bx ;"
bx :"
b0 9"
b100000000100000 8"
bx 7"
bx 6"
b100000000100000 5"
b100 4"
bx 3"
bx 2"
bx 1"
bx 0"
bx /"
bx ."
bx -"
x,"
bx +"
bx *"
x)"
bx ("
bx '"
bx &"
bx %"
bx $"
bx #"
bx ""
bx !"
bx ~
bx }
bx |
bx {
bx z
xy
bx x
bx w
bx v
bx u
bx t
xs
bx r
bx q
xp
bx o
bx n
bx m
bx l
bx k
bx j
bx i
bx h
bx g
bx f
bx e
bx d
bx c
b101 b
bx a
bx `
b0 _
b100 ^
b100 ]
bx \
bx [
bx Z
bx Y
bx X
bx W
bx V
bx U
bx T
bx00 S
bx R
bx Q
b100 P
bx O
bx N
bx M
bx L
xK
xJ
bx I
bx H
bx G
bx F
bx E
0D
b0xxxxxxxxxxxxxxxxxxxxxxxxxx00 C
bx B
bx A
bx @
bx ?
bx >
0=
bx <
bx ;
bx :
bx 9
08
bx 7
bx 6
bx 5
b0 4
03
x2
x1
b100 0
bx /
bx .
bx -
bx ,
0+
1*
0)
b0 (
b11 '
b100000 &
b0 %
b0 $
0#
0"
1!
$end
#12
1#
1"
#25
0J
b10000000010000100 9
b10000000010000100 Q
b10000000010000100 C"
b10000000010000000 S
b10000000010000000 m"
b0 $"
b0 ""
b0 #"
b1000 !"
b100000000100000 6
b100000000100000 %"
b100000000100000 i"
b100000000100000 l"
b100000000100000 h"
1K
b0 G
b0 &"
b0 f"
b0 e"
b0 H
b0 '"
b0 d"
b0 c"
b100000000100000 j"
b100000000100000 5
b100000000100000 `
b100000000100000 z
b100000000100000 7"
b100 I
b100 R
b100 6"
0*
0!
#50
b1 |
b0 }
b10 ~
b1000 G"
b1000 _"
b10000001 @
b10000001 ^"
b100000000010010000000000001010 5"
b100000000010010000000000001010 8"
b1000 0
b1000 D"
b1000 E"
b10000001 7
b10000001 a
b10000001 \"
b1000 P
b1000 ^
b1000 4"
b1000 B"
b100 4
b100 _
b100 9"
b100 `"
b1 $
b10000000010000000 C
b10000000010000000 F"
b10000000010000000 k"
1*
1!
#75
b0 T
b0 f
b0 X
b0 .
b0 U
b0 M"
b101000 S
b101000 m"
b10 W
b10 Y
b10 \
0y
b0 >
b0 g
b0 L"
b0 ["
b0 -
b0 V
b0 V"
b100000 Z
b0 r
b0 Z"
b0 x
b0 q
b0 U"
b0 w
b1000 /
b1000 h
b1000 J"
b1001 ""
b1001 #"
b0 !"
b1010 6
b1010 %"
b1010 i"
b1010 l"
b1010 h"
b1001 e"
b10010000000000001010 j"
0)"
b0 [
b0 ("
1,"
b0 O
b0 j
b0 -"
b10 M
b10 i
b10 ."
b0 +"
b0 W"
b0 *"
b0 R"
b100000000100000 L
b100000000100000 3"
b100000000100000 K"
b0 F
b0 v
b0 2"
b0 E
b0 u
b0 0"
b0 N
b0 {
b0 1"
b0 H"
b1000 /"
b1000 I"
b100000000010010000000000001010 5
b100000000010010000000000001010 `
b100000000010010000000000001010 z
b100000000010010000000000001010 7"
b110000 9
b110000 Q
b110000 C"
b1000 I
b1000 R
b1000 6"
0*
0!
#100
b1100 |
b1100 G"
b1100 _"
b10001100 @
b10001100 ^"
b10101101000000000000000000000000 5"
b10101101000000000000000000000000 8"
b1100 0
b1100 D"
b1100 E"
b10001100 7
b10001100 a
b10001100 \"
b1100 P
b1100 ^
b1100 4"
b1100 B"
b1000 4
b1000 _
b1000 9"
b1000 `"
b1001000000000000101000 C
b1001000000000000101000 F"
b1001000000000000101000 k"
b10 $
1*
1!
#125
b0 S
b0 m"
b1010 T
b1010 f
b1010 X
b1000 $"
b0 ""
b0 #"
b0 6
b0 %"
b0 i"
b0 l"
b0 h"
b0 e"
b1000 c"
b1000000000000000000000000 j"
b1010 .
b1010 U
b1010 M"
b1010 Z
b1001 /
b1001 h
b1001 J"
1p
b10101101000000000000000000000000 5
b10101101000000000000000000000000 `
b10101101000000000000000000000000 z
b10101101000000000000000000000000 7"
b1100 9
b1100 Q
b1100 C"
b1100 I
b1100 R
b1100 6"
1)"
b10 [
b10 ("
0,"
b1010 L
b1010 3"
b1010 K"
b1001 E
b1001 u
b1001 0"
b1001 N
b1001 {
b1001 1"
b1001 H"
b0 /"
b0 I"
01
02
b1000 A
b1000 m
b1000 o
b1000 ="
b0 ,
b0 c
b0 n
b0 B
b0 d
b0 k
b0 <"
b0 T"
b0 Y"
b10 ;
b10 l
b10 ;"
0*
0!
#150
b1 }
b0 ~
b10000 G"
b10000 _"
b11100 @
b11100 ^"
b10101101000010010000000000000100 5"
b10101101000010010000000000000100 8"
b10000 0
b10000 D"
b10000 E"
b11100 7
b11100 a
b11100 \"
b10000 P
b10000 ^
b10000 4"
b10000 B"
b1100 4
b1100 _
b1100 9"
b1100 `"
b11 $
b100000000000000000000000000 C
b100000000000000000000000000 F"
b100000000000000000000000000 k"
1*
1!
#175
b1 q
b1 U"
b1 w
b0 T
b0 f
b0 X
b10000 S
b10000 m"
b0 ?
b0 Q"
b0 S"
b0 X"
b0 b"
1s
0P"
1g"
b0 .
b0 U
b0 M"
b0 Z
b0 /
b0 h
b0 J"
b1001 ""
b1001 #"
b100 6
b100 %"
b100 i"
b100 l"
b100 h"
b1001 e"
b1000010010000000000000100 j"
b1000 :
b1000 t
b1000 A"
b1000 a"
b0 @"
b0 N"
b10 <
b10 ?"
b1001 A
b1001 m
b1001 o
b1001 ="
b1010 B
b1010 d
b1010 k
b1010 <"
b1010 T"
b1010 Y"
b1 O
b1 j
b1 -"
b0 M
b0 i
b0 ."
b0 L
b0 3"
b0 K"
b1000 F
b1000 v
b1000 2"
b0 E
b0 u
b0 0"
b0 N
b0 {
b0 1"
b0 H"
b10101101000010010000000000000100 5
b10101101000010010000000000000100 `
b10101101000010010000000000000100 z
b10101101000010010000000000000100 7"
b100000 9
b100000 Q
b100000 C"
b10000 I
b10000 R
b10000 6"
0*
0!
#200
b10100 G"
b10100 _"
b10001101000011010000000000000100 5"
b10001101000011010000000000000100 8"
b10100 0
b10100 D"
b10100 E"
b10100 P
b10100 ^
b10100 4"
b10100 B"
b10000 4
b10000 _
b10000 9"
b10000 `"
b100001001000000000000010000 C
b100001001000000000000010000 F"
b100001001000000000000010000 k"
b100 $
1*
1!
#225
b100 T
b100 f
b100 X
b1101 ""
b1101 #"
b1101 e"
b1000011010000000000000100 j"
b100 .
b100 U
b100 M"
b100 Z
b1001 /
b1001 h
b1001 J"
b1010 >
b1010 g
b1010 L"
b1010 ["
0p
b1 r
b1 Z"
b1 x
b0 q
b0 U"
b0 w
b1010 ?
b1010 Q"
b1010 S"
b1010 X"
b1010 b"
b10001101000011010000000000000100 5
b10001101000011010000000000000100 `
b10001101000011010000000000000100 z
b10001101000011010000000000000100 7"
b100100 9
b100100 Q
b100100 C"
b10100 I
b10100 R
b10100 6"
b100 L
b100 3"
b100 K"
b1001 E
b1001 u
b1001 0"
b1001 N
b1001 {
b1001 1"
b1001 H"
11
b0 A
b0 m
b0 o
b0 ="
b0 B
b0 d
b0 k
b0 <"
b0 T"
b0 Y"
b0 ;
b0 l
b0 ;"
b1001 :
b1001 t
b1001 A"
b1001 a"
b1010 @"
b1010 N"
0*
0!
#250
b10 }
b11 ~
b11000 G"
b11000 _"
b11101100 @
b11101100 ^"
b1101010010111100000100000 5"
b1101010010111100000100000 8"
b11000 0
b11000 D"
b11000 E"
b11101100 7
b11101100 a
b11101100 \"
b11000 P
b11000 ^
b11000 4"
b11000 B"
b10100 4
b10100 _
b10100 9"
b10100 `"
b0 b
b101 $
b100001101000000000000010000 C
b100001101000000000000010000 F"
b100001101000000000000010000 k"
1*
1!
#275
b0 |
b0 }
b0 ~
b0 @
b0 ^"
1J
1D
1=
b11110000010000000 S
b11110000010000000 m"
b0 ?
b0 Q"
b0 S"
b0 X"
b0 b"
0s
0g"
b0 >
b0 g
b0 L"
b0 ["
1y
b0 r
b0 Z"
b0 x
b1101 /
b1101 h
b1101 J"
b1101 $"
b1001 ""
b1001 #"
b1111 !"
b111100000100000 6
b111100000100000 %"
b111100000100000 i"
b111100000100000 l"
b111100000100000 h"
0K
b1010 G
b1010 &"
b1010 f"
b1001 e"
b1101 c"
b1101010010111100000100000 j"
b0 :
b0 t
b0 A"
b0 a"
b0 @"
b0 N"
b0 <
b0 ?"
b1001 A
b1001 m
b1001 o
b1001 ="
b1010 ,
b1010 c
b1010 n
b100 B
b100 d
b100 k
b100 <"
b100 T"
b100 Y"
b10 O
b10 j
b10 -"
b11 M
b11 i
b11 ."
b1101 E
b1101 u
b1101 0"
b1101 N
b1101 {
b1101 1"
b1101 H"
b1101010010111100000100000 5
b1101010010111100000100000 `
b1101010010111100000100000 z
b1101010010111100000100000 7"
b11110000010011000 9
b11110000010011000 Q
b11110000010011000 C"
b11000 I
b11000 R
b11000 6"
0*
0!
#300
b10000001 7
b10000001 a
b10000001 \"
b110101001011110000010000000 C
b110101001011110000010000000 F"
b110101001011110000010000000 k"
b110 $
1*
1!
#325
b1 |
b10 ~
b10000001 @
b10000001 ^"
0J
0D
0=
b100 -
b100 V
b100 V"
b1110 T
b1110 f
b1110 X
b10 q
b10 U"
b10 w
0y
b1010 >
b1010 g
b1010 L"
b1010 ["
b1010 .
b1010 U
b1010 M"
b100000 Z
b1001 /
b1001 h
b1001 J"
1p
b100 ?
b100 Q"
b100 S"
b100 X"
b100 b"
0)"
b0 [
b0 ("
b0 O
b0 j
b0 -"
b0 M
b0 i
b0 ."
b1010 +"
b1010 W"
b111100000100000 L
b111100000100000 3"
b111100000100000 K"
b1101 F
b1101 v
b1101 2"
b1001 E
b1001 u
b1001 0"
b1001 N
b1001 {
b1001 1"
b1001 H"
b1111 /"
b1111 I"
01
12
b1101 A
b1101 m
b1101 o
b1101 ="
b0 ,
b0 c
b0 n
b11 ;
b11 l
b11 ;"
b1001 :
b1001 t
b1001 A"
b1001 a"
b100 @"
b100 N"
0*
0!
#350
b11100 G"
b11100 _"
b100000000010100000000000001101 5"
b100000000010100000000000001101 8"
b11100 0
b11100 D"
b11100 E"
b11100 P
b11100 ^
b11100 4"
b11100 B"
b11000 4
b11000 _
b11000 9"
b11000 `"
b111 $
1*
1!
#375
bx ?
bx Q"
bx S"
bx X"
bx b"
bx T
bx f
bx X
b110100 S
b110100 m"
1s
1P"
1g"
b1 q
b1 U"
b1 w
bx -
bx V
bx V"
0p
b1111 /
b1111 h
b1111 J"
b0 $"
b1010 ""
b1010 #"
b0 !"
b1101 6
b1101 %"
b1101 i"
b1101 l"
b1101 h"
1K
b0 G
b0 &"
b0 f"
b1010 e"
b0 c"
b10100000000000001101 j"
b1101 :
b1101 t
b1101 A"
b1101 a"
b11 <
b11 ?"
02
b1001 A
b1001 m
b1001 o
b1001 ="
b1010 ,
b1010 c
b1010 n
b1110 B
b1110 d
b1110 k
b1110 <"
b1110 T"
b1110 Y"
b0 ;
b0 l
b0 ;"
1,"
b10 M
b10 i
b10 ."
b100000000010100000000000001101 5
b100000000010100000000000001101 `
b100000000010100000000000001101 z
b100000000010100000000000001101 7"
b1010000 9
b1010000 Q
b1010000 C"
b11100 I
b11100 R
b11100 6"
0*
0!
#400
b1100 |
b100000 G"
b100000 _"
b10001100 @
b10001100 ^"
b1001010010101100000011000 5"
b1001010010101100000011000 8"
b100000 0
b100000 D"
b100000 E"
b10001100 7
b10001100 a
b10001100 \"
b100000 P
b100000 ^
b100000 4"
b100000 B"
b11100 4
b11100 _
b11100 9"
b11100 `"
b1010000000000000110100 C
b1010000000000000110100 F"
b1010000000000000110100 k"
b1000 $
1*
1!
#425
b10110000001100000 S
b10110000001100000 m"
b1101 T
b1101 f
b1101 X
b1001 $"
b1001 ""
b1001 #"
b1011 !"
b101100000011000 6
b101100000011000 %"
b101100000011000 i"
b101100000011000 l"
b101100000011000 h"
b1010 G
b1010 &"
b1010 f"
b1001 e"
1K
b1010 H
b1010 '"
b1010 d"
b1001 c"
b1001010010101100000011000 j"
b1101 .
b1101 U
b1101 M"
b1101 Z
b1010 /
b1010 h
b1010 J"
b0 -
b0 V
b0 V"
b0 >
b0 g
b0 L"
b0 ["
1p
b0 q
b0 U"
b0 w
b1110 ?
b1110 Q"
b1110 S"
b1110 X"
b1110 b"
0s
0P"
0g"
b1001010010101100000011000 5
b1001010010101100000011000 `
b1001010010101100000011000 z
b1001010010101100000011000 7"
b10110000010000000 9
b10110000010000000 Q
b10110000010000000 C"
b100000 I
b100000 R
b100000 6"
1)"
b10 [
b10 ("
0,"
b0 +"
b0 W"
b1101 L
b1101 3"
b1101 K"
b0 F
b0 v
b0 2"
b1010 E
b1010 u
b1010 0"
b1010 N
b1010 {
b1010 1"
b1010 H"
b0 /"
b0 I"
b1111 A
b1111 m
b1111 o
b1111 ="
bx B
bx d
bx k
bx <"
bx T"
bx Y"
b10 ;
b10 l
b10 ;"
b1001 :
b1001 t
b1001 A"
b1001 a"
b1110 @"
b1110 N"
b0 <
b0 ?"
0*
0!
#450
b1 |
b100100 G"
b100100 _"
b10000001 @
b10000001 ^"
b1000000000000000000000001011 5"
b1000000000000000000000001011 8"
b100100 0
b100100 D"
b100100 E"
b10000001 7
b10000001 a
b10000001 \"
b100100 P
b100100 ^
b100100 4"
b100100 B"
b100000 4
b100000 _
b100000 9"
b100000 `"
b1001 $
b100101001010110000001100000 C
b100101001010110000001100000 F"
b100101001010110000001100000 k"
1*
1!
#475
b1100100 T
b1100100 f
b1100100 X
b101100 S
b101100 m"
bx ?
bx Q"
bx S"
bx X"
bx b"
1s
1g"
b111 W
b111 Y
b111 \
b1010 >
b1010 g
b1010 L"
b1010 ["
b1010 -
b1010 V
b1010 V"
b1010 .
b1010 U
b1010 M"
b11000 Z
b1011 /
b1011 h
b1011 J"
b0 $"
b0 ""
b0 #"
b0 !"
b1011 6
b1011 %"
b1011 i"
b1011 l"
b1011 h"
b0 G
b0 &"
b0 f"
b0 e"
1K
b0 H
b0 '"
b0 d"
b0 c"
b1011 j"
b1111 :
b1111 t
b1111 A"
b1111 a"
bx @"
bx N"
b10 <
b10 ?"
b1010 A
b1010 m
b1010 o
b1010 ="
b0 ,
b0 c
b0 n
b1101 B
b1101 d
b1101 k
b1101 <"
b1101 T"
b1101 Y"
0)"
b0 [
b0 ("
1,"
b1010 +"
b1010 W"
b1010 *"
b1010 R"
b101100000011000 L
b101100000011000 3"
b101100000011000 K"
b1001 F
b1001 v
b1001 2"
b1001 E
b1001 u
b1001 0"
b1001 N
b1001 {
b1001 1"
b1001 H"
b1011 /"
b1011 I"
b1000000000000000000000001011 5
b1000000000000000000000001011 `
b1000000000000000000000001011 z
b1000000000000000000000001011 7"
b1010000 9
b1010000 Q
b1010000 C"
b100100 I
b100100 R
b100100 6"
0*
0!
#500
b0 |
b0 ~
b101100 G"
b101100 _"
1+
b0 @
b0 ^"
b100001001010010000000000000001 5"
b100001001010010000000000000001 8"
b101000 0
b101000 D"
b101000 E"
13
b0 7
b0 a
b0 \"
b101000 P
b101000 ^
b101000 4"
b101000 B"
b100100 4
b100100 _
b100100 9"
b100100 `"
b101100 C
b101100 F"
b101100 k"
b1010 $
1*
1!
#525
b0 S
b0 m"
b100 W
b100 Y
b100 \
b0 T
b0 f
b0 X
b0 6
b0 %"
b0 i"
b0 l"
b0 h"
b0 j"
b0 .
b0 U
b0 M"
b1011 Z
b0 /
b0 h
b0 J"
b0 -
b0 V
b0 V"
b0 >
b0 g
b0 L"
b0 ["
b1101 ?
b1101 Q"
b1101 S"
b1101 X"
b1101 b"
b0 5
b0 `
b0 z
b0 7"
b101000 9
b101000 Q
b101000 C"
b101000 I
b101000 R
b101000 6"
0,"
b0 M
b0 i
b0 ."
b0 +"
b0 W"
b0 *"
b0 R"
b1011 L
b1011 3"
b1011 K"
b0 F
b0 v
b0 2"
b0 E
b0 u
b0 0"
b0 N
b0 {
b0 1"
b0 H"
b0 /"
b0 I"
b1011 A
b1011 m
b1011 o
b1011 ="
b1010 ,
b1010 c
b1010 n
b1100100 B
b1100100 d
b1100100 k
b1100100 <"
b1100100 T"
b1100100 Y"
b1010 :
b1010 t
b1010 A"
b1010 a"
b1101 @"
b1101 N"
0*
0!
#550
b1 |
b10 ~
b10000001 @
b10000001 ^"
b1010010010101000000100010 5"
b1010010010101000000100010 8"
b110000 0
b110000 D"
b110000 E"
b10000001 7
b10000001 a
b10000001 \"
b110000 P
b110000 ^
b110000 4"
b110000 B"
b101100 4
b101100 _
b101100 9"
b101100 `"
0+
b110000 G"
b110000 _"
03
b1011 $
b0 C
b0 F"
b0 k"
1*
1!
#575
b10100000010001000 S
b10100000010001000 m"
b1100100 ?
b1100100 Q"
b1100100 S"
b1100100 X"
b1100100 b"
0p
b0 Z
b1010 $"
b1001 ""
b1001 #"
b1010 !"
b101000000100010 6
b101000000100010 %"
b101000000100010 i"
b101000000100010 l"
b101000000100010 h"
b1010 G
b1010 &"
b1010 f"
b1001 e"
0K
b1101 H
b1101 '"
b1101 d"
b1010 c"
b1010010010101000000100010 j"
b1011 :
b1011 t
b1011 A"
b1011 a"
b1100100 @"
b1100100 N"
b0 A
b0 m
b0 o
b0 ="
b0 ,
b0 c
b0 n
b0 B
b0 d
b0 k
b0 <"
b0 T"
b0 Y"
b0 ;
b0 l
b0 ;"
1,"
b10 M
b10 i
b10 ."
b0 L
b0 3"
b0 K"
b1010010010101000000100010 5
b1010010010101000000100010 `
b1010010010101000000100010 z
b1010010010101000000100010 7"
b10100000010111000 9
b10100000010111000 Q
b10100000010111000 C"
b110000 I
b110000 R
b110000 6"
0*
0!
#600
b110100 G"
b110100 _"
b1001010100101100000100100 5"
b1001010100101100000100100 8"
b110100 0
b110100 D"
b110100 E"
b110100 P
b110100 ^
b110100 4"
b110100 B"
b110000 4
b110000 _
b110000 9"
b110000 `"
b101001001010100000010001000 C
b101001001010100000010001000 F"
b101001001010100000010001000 k"
b1100 $
1*
1!
#625
b10110000010010000 S
b10110000010010000 m"
b1010 .
b1010 U
b1010 M"
b11 T
b11 f
b11 X
b110 W
b110 Y
b110 \
b1001 $"
b1010 ""
b1010 #"
b1011 !"
b101100000100100 6
b101100000100100 %"
b101100000100100 i"
b101100000100100 l"
b101100000100100 h"
b1101 G
b1101 &"
b1101 f"
b1010 e"
0K
b1010 H
b1010 '"
b1010 d"
b1001 c"
b1001010100101100000100100 j"
b1010 >
b1010 g
b1010 L"
b1010 ["
b1101 -
b1101 V
b1101 V"
b100010 Z
b1010 /
b1010 h
b1010 J"
1p
b0 ?
b0 Q"
b0 S"
b0 X"
b0 b"
0s
0g"
b1001010100101100000100100 5
b1001010100101100000100100 `
b1001010100101100000100100 z
b1001010100101100000100100 7"
b10110000011000100 9
b10110000011000100 Q
b10110000011000100 C"
b110100 I
b110100 R
b110100 6"
b1010 +"
b1010 W"
b1101 *"
b1101 R"
b101000000100010 L
b101000000100010 3"
b101000000100010 K"
b1010 F
b1010 v
b1010 2"
b1001 E
b1001 u
b1001 0"
b1001 N
b1001 {
b1001 1"
b1001 H"
b1010 /"
b1010 I"
b10 ;
b10 l
b10 ;"
b0 :
b0 t
b0 A"
b0 a"
b0 @"
b0 N"
b0 <
b0 ?"
0*
0!
#650
b111000 G"
b111000 _"
b1010010110110000000100101 5"
b1010010110110000000100101 8"
b111000 0
b111000 D"
b111000 E"
b111000 P
b111000 ^
b111000 4"
b111000 B"
b110100 4
b110100 _
b110100 9"
b110100 `"
b1101 $
b100101010010110000010010000 C
b100101010010110000010010000 F"
b100101010010110000010010000 k"
1*
1!
