project1_src/result.vcd
$date
	Wed Dec  7 20:25:35 2016
$end
$version
	Icarus Verilog
$end
$timescale
	1s
$end
$scope module Equal $end
$var wire 32 ! data1_i [31:0] $end
$var wire 32 " data2_i [31:0] $end
$var wire 1 # data_o $end
$upscope $end
$scope module TestBench $end
$var reg 1 $ Clk $end
$var reg 1 % Reset $end
$var reg 1 & Start $end
$var integer 32 ' counter [31:0] $end
$var integer 32 ( flush [31:0] $end
$var integer 32 ) i [31:0] $end
$var integer 32 * outfile [31:0] $end
$var integer 32 + stall [31:0] $end
$scope module CPU $end
$var wire 1 , branch_flag $end
$var wire 1 $ clk_i $end
$var wire 1 - clk_w $end
$var wire 1 . flush $end
$var wire 1 % rst_i $end
$var wire 1 & start_i $end
$var wire 32 / mux1Out [31:0] $end
$var wire 1 0 jump_flag $end
$var wire 32 1 inst_addr [31:0] $end
$var wire 32 2 inst [31:0] $end
$var wire 32 3 extended [31:0] $end
$var wire 1 4 branch_flagT $end
$var wire 5 5 WB_mux3 [4:0] $end
$var wire 2 6 WB_memState [1:0] $end
$var wire 2 7 WB_WBState [1:0] $end
$var wire 32 8 MUX_7Out [31:0] $end
$var wire 32 9 MUX_5Out [31:0] $end
$var wire 8 : MUX8_data [7:0] $end
$var wire 5 ; MEM_mux3 [4:0] $end
$var wire 32 < MEM_ALUOut [31:0] $end
$var wire 32 = JUMP_Addr [31:0] $end
$var wire 1 > IFIDWrite $end
$var wire 32 ? ID_rt [31:0] $end
$var wire 32 @ ID_rs [31:0] $end
$var wire 32 A ID_addr [31:0] $end
$var wire 1 B Eq_flag $end
$var wire 32 C EX_extend [31:0] $end
$var wire 5 D EX_Rt [4:0] $end
$var wire 2 E EX_M [1:0] $end
$var wire 32 F Add_pc_o [31:0] $end
$scope module ADD $end
$var wire 32 G data_o [31:0] $end
$var wire 32 H data2_in [31:0] $end
$var wire 32 I data1_in [31:0] $end
$upscope $end
$scope module ALU $end
$var wire 32 J data1_i [31:0] $end
$var wire 32 K data2_i [31:0] $end
$var wire 32 L data_o [31:0] $end
$var wire 3 M ALUCtrl_i [2:0] $end
$var reg 32 N result_temp [31:0] $end
$upscope $end
$scope module ALU_Control $end
$var wire 3 O ALUCtrl_o [2:0] $end
$var wire 6 P funct_i [5:0] $end
$var wire 2 Q ALUOp_i [1:0] $end
$var reg 3 R aluCtrl_temp [2:0] $end
$upscope $end
$scope module Add_PC $end
$var wire 32 S data2_in [31:0] $end
$var wire 32 T data_o [31:0] $end
$var wire 32 U data1_in [31:0] $end
$upscope $end
$scope module Control $end
$var wire 32 V data_in [31:0] $end
$var reg 1 4 branch $end
$var reg 8 W data_out [7:0] $end
$var reg 1 0 jump $end
$upscope $end
$scope module DataMemory $end
$var wire 32 X WriteData_i [31:0] $end
$var wire 1 Y memRead_i $end
$var wire 1 Z memWrite_i $end
$var wire 32 [ ALUOut_i [31:0] $end
$var reg 32 \ ReadData_o [31:0] $end
$upscope $end
$scope module EX_MEM $end
$var wire 32 ] ALUOut_i [31:0] $end
$var wire 2 ^ WB_i [1:0] $end
$var wire 1 $ clk_i $end
$var wire 5 _ mux3_i [4:0] $end
$var wire 32 ` mux7_i [31:0] $end
$var wire 2 a MEM_i [1:0] $end
$var reg 32 b ALUOut_o [31:0] $end
$var reg 1 c MemRead_o $end
$var reg 1 d MemWrite_o $end
$var reg 2 e WB_o [1:0] $end
$var reg 5 f mux3_o [4:0] $end
$var reg 32 g mux7_o [31:0] $end
$upscope $end
$scope module ForwardingUnit $end
$var wire 5 h EX_MEM_RegRd_i [4:0] $end
$var wire 1 i EX_MEM_regWrite_i $end
$var wire 2 j ForwardA_o [1:0] $end
$var wire 2 k ForwardB_o [1:0] $end
$var wire 5 l ID_EX_RegRs [4:0] $end
$var wire 5 m ID_EX_RegRt [4:0] $end
$var wire 1 n MEM_WB_regWrite_i $end
$var wire 5 o MEM_WB_RegRd_i [4:0] $end
$var reg 2 p fa_temp [1:0] $end
$var reg 2 q fb_temp [1:0] $end
$upscope $end
$scope module HazardDetection $end
$var wire 2 r IDEX_MemRead_i [1:0] $end
$var wire 1 $ clk_i $end
$var wire 32 s instr_i [31:0] $end
$var wire 5 t IDEX_RegisterRt_i [4:0] $end
$var reg 1 > IFIDWrite_o $end
$var reg 1 u MUX8_o $end
$var reg 1 v PCWrite_o $end
$upscope $end
$scope module ID_EX $end
$var wire 1 $ clk_i $end
$var wire 4 w ctrl_EX_i [3:0] $end
$var wire 2 x ctrl_M_i [1:0] $end
$var wire 2 y ctrl_WB_i [1:0] $end
$var wire 5 z instr1115_i [4:0] $end
$var wire 5 { instr1620_FW_i [4:0] $end
$var wire 5 | instr1620_MUX_i [4:0] $end
$var wire 5 } instr2125_i [4:0] $end
$var wire 32 ~ sign_extend_i [31:0] $end
$var wire 32 !" RT_data_i [31:0] $end
$var wire 32 "" RS_data_i [31:0] $end
$var reg 2 #" ALUOp_o [1:0] $end
$var reg 1 $" ALUSrc_o $end
$var reg 32 %" RS_data_o [31:0] $end
$var reg 32 &" RT_data_o [31:0] $end
$var reg 1 '" RegDst_o $end
$var reg 2 (" ctrl_M_o [1:0] $end
$var reg 2 )" ctrl_WB_o [1:0] $end
$var reg 5 *" instr1115_o [4:0] $end
$var reg 5 +" instr1620_FW_o [4:0] $end
$var reg 5 ," instr1620_MUX_o [4:0] $end
$var reg 5 -" instr2125_o [4:0] $end
$var reg 32 ." sign_extend_o [31:0] $end
$upscope $end
$scope module IF_ID $end
$var wire 1 > IFIDWrite_i $end
$var wire 32 /" addr_i [31:0] $end
$var wire 1 $ clk_i $end
$var wire 1 . flush_i $end
$var wire 32 0" instr_i [31:0] $end
$var reg 32 1" addr_o [31:0] $end
$var reg 32 2" instr_o [31:0] $end
$upscope $end
$scope module Instruction_Memory $end
$var wire 32 3" instr_o [31:0] $end
$var wire 32 4" addr_i [31:0] $end
$upscope $end
$scope module MEM_WB $end
$var wire 32 5" ReadData_i [31:0] $end
$var wire 2 6" WB_i [1:0] $end
$var wire 1 $ clk_i $end
$var wire 32 7" immed_i [31:0] $end
$var wire 5 8" mux3_i [4:0] $end
$var reg 32 9" ReadData_o [31:0] $end
$var reg 2 :" WB_o [1:0] $end
$var reg 32 ;" immed_o [31:0] $end
$var reg 5 <" mux3_o [4:0] $end
$upscope $end
$scope module MUX_1 $end
$var wire 32 =" data1_i [31:0] $end
$var wire 32 >" data2_i [31:0] $end
$var wire 1 , select_i $end
$var reg 32 ?" data_o [31:0] $end
$upscope $end
$scope module MUX_2 $end
$var wire 32 @" data1_i [31:0] $end
$var wire 32 A" data2_i [31:0] $end
$var wire 1 0 select_i $end
$var reg 32 B" data_o [31:0] $end
$upscope $end
$scope module MUX_3 $end
$var wire 5 C" data1_i [4:0] $end
$var wire 5 D" data2_i [4:0] $end
$var wire 1 '" select_i $end
$var reg 5 E" data_o [4:0] $end
$upscope $end
$scope module MUX_4 $end
$var wire 32 F" data1_i [31:0] $end
$var wire 1 $" select_i $end
$var wire 32 G" data2_i [31:0] $end
$var reg 32 H" data_o [31:0] $end
$upscope $end
$scope module MUX_5 $end
$var wire 32 I" data1_i [31:0] $end
$var wire 32 J" data2_i [31:0] $end
$var wire 1 K" select_i $end
$var reg 32 L" data_o [31:0] $end
$upscope $end
$scope module MUX_6 $end
$var wire 32 M" data1_i [31:0] $end
$var wire 32 N" data2_i [31:0] $end
$var wire 32 O" data3_i [31:0] $end
$var wire 2 P" select_i [1:0] $end
$var reg 32 Q" data_o [31:0] $end
$upscope $end
$scope module MUX_7 $end
$var wire 32 R" data1_i [31:0] $end
$var wire 32 S" data2_i [31:0] $end
$var wire 32 T" data3_i [31:0] $end
$var wire 2 U" select_i [1:0] $end
$var reg 32 V" data_o [31:0] $end
$upscope $end
$scope module MUX_8 $end
$var wire 8 W" data1_i [7:0] $end
$var wire 8 X" data2_i [7:0] $end
$var wire 1 u select_i $end
$var reg 8 Y" data_o [7:0] $end
$upscope $end
$scope module PC $end
$var wire 1 v PCWrite_i $end
$var wire 1 - clk_i $end
$var wire 32 Z" pc_i [31:0] $end
$var wire 1 % rst_i $end
$var wire 1 & start_i $end
$var reg 32 [" pc_o [31:0] $end
$upscope $end
$scope module Registers $end
$var wire 5 \" RDaddr_i [4:0] $end
$var wire 32 ]" RDdata_i [31:0] $end
$var wire 5 ^" RSaddr_i [4:0] $end
$var wire 32 _" RSdata_o [31:0] $end
$var wire 5 `" RTaddr_i [4:0] $end
$var wire 32 a" RTdata_o [31:0] $end
$var wire 1 b" RegWrite_i $end
$var wire 1 $ clk_i $end
$upscope $end
$scope module Sign_Extend $end
$var wire 16 c" data_i [15:0] $end
$var wire 32 d" data_o [31:0] $end
$upscope $end
$scope module shiftLeft2_26 $end
$var wire 26 e" data_i [25:0] $end
$var wire 28 f" data_o [27:0] $end
$upscope $end
$scope module shiftLeft2_32 $end
$var wire 32 g" data_i [31:0] $end
$var wire 32 h" data_o [31:0] $end
$upscope $end
$upscope $end
$upscope $end
$enddefinitions $end
#0
$dumpvars
bx00 h"
bx g"
bx00 f"
bx e"
bx d"
bx c"
xb"
bx a"
bx `"
bx _"
bx ^"
bx ]"
bx \"
b0 ["
b100 Z"
bx Y"
b0 X"
bx W"
bx V"
bx U"
bx T"
bx S"
bx R"
bx Q"
bx P"
bx O"
bx N"
bx M"
bx L"
xK"
bx J"
bx I"
bx H"
bx G"
bx F"
bx E"
bx D"
bx C"
b100 B"
b0xxxxxxxxxxxxxxxxxxxxxxxxxx00 A"
b100 @"
b100 ?"
bx >"
b100 ="
bx <"
bx ;"
bx :"
bx 9"
bx 8"
bx 7"
bx 6"
bx 5"
b0 4"
b100000000100000 3"
bx 2"
bx 1"
b100000000100000 0"
b100 /"
bx ."
bx -"
bx ,"
bx +"
bx *"
bx )"
bx ("
x'"
bx &"
bx %"
x$"
bx #"
bx ""
bx !"
bx ~
bx }
bx |
bx {
bx z
bx y
bx x
bx w
0v
0u
bx t
bx s
b0x r
bx q
bx p
bx o
xn
bx m
bx l
bx k
bx j
xi
bx h
bx g
bx f
bx e
xd
xc
bx b
bx a
bx `
bx _
bx ^
bx ]
bx \
bx [
xZ
xY
bx X
bx W
bx V
b0 U
b100 T
b100 S
bx R
bx Q
bx P
bx O
bx N
bx M
bx L
bx K
bx J
bx00 I
bx H
bx G
b100 F
bx E
bx D
bx C
xB
bx A
bx @
bx ?
0>
b0xxxxxxxxxxxxxxxxxxxxxxxxxx00 =
bx <
bx ;
bx :
bx 9
bx 8
bx 7
bx 6
bx 5
04
bx 3
bx 2
b0 1
00
b100 /
0.
1-
0,
b0 +
b11 *
b100000 )
b0 (
b0 '
0&
0%
1$
x#
bz "
bz !
$end
#12
1&
1%
#25
0-
0$
#50
b10000001 W
b10000000010000100 G
b10000000010000100 >"
b1000 B"
b1000 Z"
b10000000010000000 I
b10000000010000000 h"
b10000000010000000 =
b10000000010000000 A"
b10000000010000000 f"
b100000000010010000000000001010 0"
b100000000010010000000000001010 3"
b1000 /
b1000 ?"
b1000 @"
b0 }
b0 {
b0 |
b1000 z
b100000000100000 3
b100000000100000 ~
b100000000100000 d"
b100000000100000 g"
b100000000100000 c"
1B
b0 ?
b0 !"
b0 a"
b0 `"
b0 @
b0 ""
b0 _"
b0 ^"
b100000000100000 e"
b1000 F
b1000 T
b1000 /"
b1000 ="
b100 1
b100 U
b100 4"
b100 ["
b100000000100000 2
b100000000100000 V
b100000000100000 s
b100000000100000 2"
b100 A
b100 H
b100 1"
b1 '
1-
1$
#75
0-
0$
#100
b101000 I
b101000 h"
b1001000000000000101000 =
b1001000000000000101000 A"
b1001000000000000101000 f"
b1100 B"
b1100 Z"
b10101101000000000000000000000000 0"
b10101101000000000000000000000000 3"
b1001 {
b1001 |
b0 z
b1010 3
b1010 ~
b1010 d"
b1010 g"
b1010 c"
b1001 `"
b10010000000000001010 e"
b1100 /
b1100 ?"
b1100 @"
b0 8
b0 `
b0 G"
b0 V"
b0 Q"
b100000000100000 H"
b100000 P
b1000 E"
b1100 F
b1100 T
b1100 /"
b1100 ="
b1000 1
b1000 U
b1000 4"
b1000 ["
b100000000010010000000000001010 2
b100000000010010000000000001010 V
b100000000010010000000000001010 s
b100000000010010000000000001010 2"
b110000 G
b110000 >"
b1000 A
b1000 H
b1000 1"
b0 &"
b0 R"
b0 %"
b0 M"
b100000000100000 C
b100000000100000 ."
b100000000100000 F"
b0 -"
b0 +"
b0 D
b0 t
b0 ,"
b0 D"
b1000 *"
b1000 C"
b10 '
1-
1$
#125
0-
0$
#150
b11100 W
b0 I
b0 h"
b100000000000000000000000000 =
b100000000000000000000000000 A"
b100000000000000000000000000 f"
b10000 B"
b10000 Z"
b10101101000010010000000000000100 0"
b10101101000010010000000000000100 3"
b1010 H"
b1010 P
b0 E"
b1000 }
b0 {
b0 |
b0 3
b0 ~
b0 d"
b0 g"
b0 c"
b0 `"
b1000 ^"
b1000000000000000000000000 e"
b10000 /
b10000 ?"
b10000 @"
b10000 F
b10000 T
b10000 /"
b10000 ="
b1100 1
b1100 U
b1100 4"
b1100 ["
b0 g
b1010 C
b1010 ."
b1010 F"
b1001 +"
b1001 D
b1001 t
b1001 ,"
b1001 D"
b0 *"
b0 C"
b10101101000000000000000000000000 2
b10101101000000000000000000000000 V
b10101101000000000000000000000000 s
b10101101000000000000000000000000 2"
b1100 G
b1100 >"
b1100 A
b1100 H
b1100 1"
b11 '
1-
1$
#175
0-
0$
#200
b10000 I
b10000 h"
b100001001000000000000010000 =
b100001001000000000000010000 A"
b100001001000000000000010000 f"
b10100 B"
b10100 Z"
b10001101000011010000000000000100 0"
b10001101000011010000000000000100 3"
b1001 {
b1001 |
b100 3
b100 ~
b100 d"
b100 g"
b100 c"
b1001 `"
b1000010010000000000000100 e"
b10100 /
b10100 ?"
b10100 @"
b0 H"
b0 P
b10100 F
b10100 T
b10100 /"
b10100 ="
b10000 1
b10000 U
b10000 4"
b10000 ["
b10101101000010010000000000000100 2
b10101101000010010000000000000100 V
b10101101000010010000000000000100 s
b10101101000010010000000000000100 2"
b100000 G
b100000 >"
b10000 A
b10000 H
b10000 1"
b0 C
b0 ."
b0 F"
b1000 -"
b0 +"
b0 D
b0 t
b0 ,"
b0 D"
b100 '
1-
1$
#225
0-
0$
#250
b11101100 W
b100001101000000000000010000 =
b100001101000000000000010000 A"
b100001101000000000000010000 f"
b11000 B"
b11000 Z"
b1101010010111100000100000 0"
b1101010010111100000100000 3"
b100 H"
b100 P
b1101 {
b1101 |
b1101 `"
b1000011010000000000000100 e"
b11000 /
b11000 ?"
b11000 @"
b11000 F
b11000 T
b11000 /"
b11000 ="
b10100 1
b10100 U
b10100 4"
b10100 ["
b100 C
b100 ."
b100 F"
b1001 +"
b1001 D
b1001 t
b1001 ,"
b1001 D"
b10001101000011010000000000000100 2
b10001101000011010000000000000100 V
b10001101000011010000000000000100 s
b10001101000011010000000000000100 2"
b100100 G
b100100 >"
b10100 A
b10100 H
b10100 1"
b101 '
1-
1$
#275
0-
0$
#300
b10000001 W
b11110000010000000 I
b11110000010000000 h"
b110101001011110000010000000 =
b110101001011110000010000000 A"
b110101001011110000010000000 f"
b11100 B"
b11100 Z"
b100000000010100000000000001101 0"
b100000000010100000000000001101 3"
b1101 }
b1001 {
b1001 |
b1111 z
b111100000100000 3
b111100000100000 ~
b111100000100000 d"
b111100000100000 g"
b111100000100000 c"
b1001 `"
b1101 ^"
b1101010010111100000100000 e"
b11100 /
b11100 ?"
b11100 @"
b11100 F
b11100 T
b11100 /"
b11100 ="
b11000 1
b11000 U
b11000 4"
b11000 ["
b1101010010111100000100000 2
b1101010010111100000100000 V
b1101010010111100000100000 s
b1101010010111100000100000 2"
b11110000010011000 G
b11110000010011000 >"
b11000 A
b11000 H
b11000 1"
b1101 +"
b1101 D
b1101 t
b1101 ,"
b1101 D"
b110 '
1-
1$
#325
0-
0$
#350
b110100 I
b110100 h"
b1010000000000000110100 =
b1010000000000000110100 A"
b1010000000000000110100 f"
b100000 B"
b100000 Z"
b1001010010101100000011000 0"
b1001010010101100000011000 3"
b111100000100000 H"
b100000 P
b1111 E"
b0 }
b1010 {
b1010 |
b0 z
b1101 3
b1101 ~
b1101 d"
b1101 g"
b1101 c"
b1010 `"
b0 ^"
b10100000000000001101 e"
b100000 /
b100000 ?"
b100000 @"
b100000 F
b100000 T
b100000 /"
b100000 ="
b11100 1
b11100 U
b11100 4"
b11100 ["
b111100000100000 C
b111100000100000 ."
b111100000100000 F"
b1101 -"
b1001 +"
b1001 D
b1001 t
b1001 ,"
b1001 D"
b1111 *"
b1111 C"
b100000000010100000000000001101 2
b100000000010100000000000001101 V
b100000000010100000000000001101 s
b100000000010100000000000001101 2"
b1010000 G
b1010000 >"
b11100 A
b11100 H
b11100 1"
b111 '
1-
1$
#375
0-
0$
#400
b10110000001100000 I
b10110000001100000 h"
b100101001010110000001100000 =
b100101001010110000001100000 A"
b100101001010110000001100000 f"
b100100 B"
b100100 Z"
b1000000000000000000000001011 0"
b1000000000000000000000001011 3"
b1001 }
b1001 {
b1001 |
b1011 z
b101100000011000 3
b101100000011000 ~
b101100000011000 d"
b101100000011000 g"
b101100000011000 c"
b1001 `"
b1001 ^"
b1001010010101100000011000 e"
b100100 /
b100100 ?"
b100100 @"
b1101 H"
b1101 P
b0 E"
b100100 F
b100100 T
b100100 /"
b100100 ="
b100000 1
b100000 U
b100000 4"
b100000 ["
b1001010010101100000011000 2
b1001010010101100000011000 V
b1001010010101100000011000 s
b1001010010101100000011000 2"
b10110000010000000 G
b10110000010000000 >"
b100000 A
b100000 H
b100000 1"
b1101 C
b1101 ."
b1101 F"
b0 -"
b1010 +"
b1010 D
b1010 t
b1010 ,"
b1010 D"
b0 *"
b0 C"
b1000 '
1-
1$
#425
0-
0$
#450
b0 W
b101100 I
b101100 h"
b101100 =
b101100 A"
b101100 f"
0.
b101000 B"
b101000 Z"
b100001001010010000000000000001 0"
b100001001010010000000000000001 3"
b101100000011000 H"
b11000 P
b1011 E"
b0 }
b0 {
b0 |
b0 z
b1011 3
b1011 ~
b1011 d"
b1011 g"
b1011 c"
b0 `"
b0 ^"
b1011 e"
00
b101000 /
b101000 ?"
b101000 @"
b101000 F
b101000 T
b101000 /"
b101000 ="
b100100 1
b100100 U
b100100 4"
b100100 ["
b101100000011000 C
b101100000011000 ."
b101100000011000 F"
b1001 -"
b1001 +"
b1001 D
b1001 t
b1001 ,"
b1001 D"
b1011 *"
b1011 C"
b1000000000000000000000001011 2
b1000000000000000000000001011 V
b1000000000000000000000001011 s
b1000000000000000000000001011 2"
b1010000 G
b1010000 >"
b100100 A
b100100 H
b100100 1"
b1001 '
1-
1$
#475
0-
0$
#500
b100 I
b100 h"
b100101001000000000000000100 =
b100101001000000000000000100 A"
b100101001000000000000000100 f"
b101100 B"
b101100 Z"
b1001 }
b1001 {
b1001 |
b1 3
b1 ~
b1 d"
b1 g"
b1 c"
b1001 `"
b1001 ^"
b1001010010000000000000001 e"
b101100 /
b101100 ?"
b101100 @"
b1011 H"
b1011 P
b0 E"
b101100 F
b101100 T
b101100 /"
b101100 ="
b101000 1
b101000 U
b101000 4"
b101000 ["
b100001001010010000000000000001 2
b100001001010010000000000000001 V
b100001001010010000000000000001 s
b100001001010010000000000000001 2"
b101100 G
b101100 >"
b101000 A
b101000 H
b101000 1"
b1011 C
b1011 ."
b1011 F"
b0 -"
b0 +"
b0 D
b0 t
b0 ,"
b0 D"
b0 *"
b0 C"
b1010 '
1-
1$
#525
0-
0$
#550
b110000 B"
b110000 Z"
b1010010010101000000100010 0"
b1010010010101000000100010 3"
b1 H"
b1 P
b110000 /
b110000 ?"
b110000 @"
b110000 F
b110000 T
b110000 /"
b110000 ="
b101100 1
b101100 U
b101100 4"
b101100 ["
b1 C
b1 ."
b1 F"
b1001 -"
b1001 +"
b1001 D
b1001 t
b1001 ,"
b1001 D"
b110000 G
b110000 >"
b101100 A
b101100 H
b101100 1"
b1011 '
1-
1$
#575
0-
0$
#600
b10000001 W
b10100000010001000 I
b10100000010001000 h"
b101001001010100000010001000 =
b101001001010100000010001000 A"
b101001001010100000010001000 f"
b110100 B"
b110100 Z"
b1001010100101100000100100 0"
b1001010100101100000100100 3"
b1010 }
b1010 z
b101000000100010 3
b101000000100010 ~
b101000000100010 d"
b101000000100010 g"
b101000000100010 c"
b1010 ^"
b1010010010101000000100010 e"
b110100 /
b110100 ?"
b110100 @"
b110100 F
b110100 T
b110100 /"
b110100 ="
b110000 1
b110000 U
b110000 4"
b110000 ["
b1010010010101000000100010 2
b1010010010101000000100010 V
b1010010010101000000100010 s
b1010010010101000000100010 2"
b10100000010111000 G
b10100000010111000 >"
b110000 A
b110000 H
b110000 1"
b1100 '
1-
1$
#625
0-
0$
#650
b10110000010010000 I
b10110000010010000 h"
b100101010010110000010010000 =
b100101010010110000010010000 A"
b100101010010110000010010000 f"
b111000 B"
b111000 Z"
b1010010110110000000100101 0"
b1010010110110000000100101 3"
b101000000100010 H"
b100010 P
b1010 E"
b1001 }
b1010 {
b1010 |
b1011 z
b101100000100100 3
b101100000100100 ~
b101100000100100 d"
b101100000100100 g"
b101100000100100 c"
b1010 `"
b1001 ^"
b1001010100101100000100100 e"
b111000 /
b111000 ?"
b111000 @"
b111000 F
b111000 T
b111000 /"
b111000 ="
b110100 1
b110100 U
b110100 4"
b110100 ["
b101000000100010 C
b101000000100010 ."
b101000000100010 F"
b1010 -"
b1010 *"
b1010 C"
b1001010100101100000100100 2
b1001010100101100000100100 V
b1001010100101100000100100 s
b1001010100101100000100100 2"
b10110000011000100 G
b10110000011000100 >"
b110100 A
b110100 H
b110100 1"
b1101 '
1-
1$
#675
0-
0$
#700
b11000000010010100 I
b11000000010010100 h"
b101001011011000000010010100 =
b101001011011000000010010100 A"
b101001011011000000010010100 f"
b111100 B"
b111100 Z"
b0 0"
b0 3"
b1010 }
b1011 {
b1011 |
b1100 z
b110000000100101 3
b110000000100101 ~
b110000000100101 d"
b110000000100101 g"
b110000000100101 c"
b1011 `"
b1010 ^"
b1010010110110000000100101 e"
b111100 /
b111100 ?"
b111100 @"
b101100000100100 H"
b100100 P
b1011 E"
b111100 F
b111100 T
b111100 /"
b111100 ="
b111000 1
b111000 U
b111000 4"
b111000 ["
b1010010110110000000100101 2
b1010010110110000000100101 V
b1010010110110000000100101 s
b1010010110110000000100101 2"
b11000000011001100 G
b11000000011001100 >"
b111000 A
b111000 H
b111000 1"
b101100000100100 C
b101100000100100 ."
b101100000100100 F"
b1001 -"
b1010 +"
b1010 D
b1010 t
b1010 ,"
b1010 D"
b1011 *"
b1011 C"
b1110 '
1-
1$
#725
0-
0$
#750
b0 I
b0 h"
b0 =
b0 A"
b0 f"
b1000000 B"
b1000000 Z"
b110000000100101 H"
b100101 P
b1100 E"
b0 }
b0 {
b0 |
b0 z
b0 3
b0 ~
b0 d"
b0 g"
b0 c"
b0 `"
b0 ^"
b0 e"
b1000000 /
b1000000 ?"
b1000000 @"
b1000000 F
b1000000 T
b1000000 /"
b1000000 ="
b111100 1
b111100 U
b111100 4"
b111100 ["
b110000000100101 C
b110000000100101 ."
b110000000100101 F"
b1010 -"
b1011 +"
b1011 D
b1011 t
b1011 ,"
b1011 D"
b1100 *"
b1100 C"
b0 2
b0 V
b0 s
b0 2"
b111100 G
b111100 >"
b111100 A
b111100 H
b111100 1"
b1111 '
1-
1$
#775
0-
0$
#800
b1000100 B"
b1000100 Z"
b1000100 /
b1000100 ?"
b1000100 @"
b0 H"
b0 P
b0 E"
b1000100 F
b1000100 T
b1000100 /"
b1000100 ="
b1000000 1
b1000000 U
b1000000 4"
b1000000 ["
b1000000 G
b1000000 >"
b1000000 A
b1000000 H
b1000000 1"
b0 C
b0 ."
b0 F"
b0 -"
b0 +"
b0 D
b0 t
b0 ,"
b0 D"
b0 *"
b0 C"
b10000 '
1-
1$
#825
0-
0$
#850
b1001000 B"
b1001000 Z"
b1001000 /
b1001000 ?"
b1001000 @"
b1001000 F
b1001000 T
b1001000 /"
b1001000 ="
b1000100 1
b1000100 U
b1000100 4"
b1000100 ["
b1000100 G
b1000100 >"
b1000100 A
b1000100 H
b1000100 1"
b10001 '
1-
1$
#875
0-
0$
#900
b1001100 B"
b1001100 Z"
b1001100 /
b1001100 ?"
b1001100 @"
b1001100 F
b1001100 T
b1001100 /"
b1001100 ="
b1001000 1
b1001000 U
b1001000 4"
b1001000 ["
b1001000 G
b1001000 >"
b1001000 A
b1001000 H
b1001000 1"
b10010 '
1-
1$
#925
0-
0$
#950
b1010000 B"
b1010000 Z"
b1010000 /
b1010000 ?"
b1010000 @"
b1010000 F
b1010000 T
b1010000 /"
b1010000 ="
b1001100 1
b1001100 U
b1001100 4"
b1001100 ["
b1001100 G
b1001100 >"
b1001100 A
b1001100 H
b1001100 1"
b10011 '
1-
1$
#975
0-
0$
#1000
b1010100 B"
b1010100 Z"
b1010100 /
b1010100 ?"
b1010100 @"
b1010100 F
b1010100 T
b1010100 /"
b1010100 ="
b1010000 1
b1010000 U
b1010000 4"
b1010000 ["
b1010000 G
b1010000 >"
b1010000 A
b1010000 H
b1010000 1"
b10100 '
1-
1$
#1025
0-
0$
#1050
b1011000 B"
b1011000 Z"
b1011000 /
b1011000 ?"
b1011000 @"
b1011000 F
b1011000 T
b1011000 /"
b1011000 ="
b1010100 1
b1010100 U
b1010100 4"
b1010100 ["
b1010100 G
b1010100 >"
b1010100 A
b1010100 H
b1010100 1"
b10101 '
1-
1$
#1075
0-
0$
#1100
b1011100 B"
b1011100 Z"
b1011100 /
b1011100 ?"
b1011100 @"
b1011100 F
b1011100 T
b1011100 /"
b1011100 ="
b1011000 1
b1011000 U
b1011000 4"
b1011000 ["
b1011000 G
b1011000 >"
b1011000 A
b1011000 H
b1011000 1"
b10110 '
1-
1$
#1125
0-
0$
#1150
b1100000 B"
b1100000 Z"
b1100000 /
b1100000 ?"
b1100000 @"
b1100000 F
b1100000 T
b1100000 /"
b1100000 ="
b1011100 1
b1011100 U
b1011100 4"
b1011100 ["
b1011100 G
b1011100 >"
b1011100 A
b1011100 H
b1011100 1"
b10111 '
1-
1$
#1175
0-
0$
#1200
b1100100 B"
b1100100 Z"
b1100100 /
b1100100 ?"
b1100100 @"
b1100100 F
b1100100 T
b1100100 /"
b1100100 ="
b1100000 1
b1100000 U
b1100000 4"
b1100000 ["
b1100000 G
b1100000 >"
b1100000 A
b1100000 H
b1100000 1"
b11000 '
1-
1$
#1225
0-
0$
#1250
b1101000 B"
b1101000 Z"
b1101000 /
b1101000 ?"
b1101000 @"
b1101000 F
b1101000 T
b1101000 /"
b1101000 ="
b1100100 1
b1100100 U
b1100100 4"
b1100100 ["
b1100100 G
b1100100 >"
b1100100 A
b1100100 H
b1100100 1"
b11001 '
1-
1$
#1275
0-
0$
#1300
b1101100 B"
b1101100 Z"
b1101100 /
b1101100 ?"
b1101100 @"
b1101100 F
b1101100 T
b1101100 /"
b1101100 ="
b1101000 1
b1101000 U
b1101000 4"
b1101000 ["
b1101000 G
b1101000 >"
b1101000 A
b1101000 H
b1101000 1"
b11010 '
1-
1$
#1325
0-
0$
#1350
b1110000 B"
b1110000 Z"
b1110000 /
b1110000 ?"
b1110000 @"
b1110000 F
b1110000 T
b1110000 /"
b1110000 ="
b1101100 1
b1101100 U
b1101100 4"
b1101100 ["
b1101100 G
b1101100 >"
b1101100 A
b1101100 H
b1101100 1"
b11011 '
1-
1$
#1375
0-
0$
#1400
b1110100 B"
b1110100 Z"
b1110100 /
b1110100 ?"
b1110100 @"
b1110100 F
b1110100 T
b1110100 /"
b1110100 ="
b1110000 1
b1110000 U
b1110000 4"
b1110000 ["
b1110000 G
b1110000 >"
b1110000 A
b1110000 H
b1110000 1"
b11100 '
1-
1$
#1425
0-
0$
#1450
b1111000 B"
b1111000 Z"
b1111000 /
b1111000 ?"
b1111000 @"
b1111000 F
b1111000 T
b1111000 /"
b1111000 ="
b1110100 1
b1110100 U
b1110100 4"
b1110100 ["
b1110100 G
b1110100 >"
b1110100 A
b1110100 H
b1110100 1"
b11101 '
1-
1$
#1475
0-
0$
#1500
b1111100 B"
b1111100 Z"
b1111100 /
b1111100 ?"
b1111100 @"
b1111100 F
b1111100 T
b1111100 /"
b1111100 ="
b1111000 1
b1111000 U
b1111000 4"
b1111000 ["
b1111000 G
b1111000 >"
b1111000 A
b1111000 H
b1111000 1"
b11110 '
1-
1$
