dcache_one_way_example/test.vcd
$date
	Wed Dec 28 23:00:38 2016
$end
$version
	Icarus Verilog
$end
$timescale
	1s
$end
$scope module TestBench $end
$var wire 32 ! cpu_mem_addr [31:0] $end
$var wire 256 " cpu_mem_data [255:0] $end
$var wire 1 # cpu_mem_enable $end
$var wire 1 $ cpu_mem_write $end
$var wire 1 % mem_cpu_ack $end
$var wire 256 & mem_cpu_data [255:0] $end
$var reg 1 ' Clk $end
$var reg 1 ( Reset $end
$var reg 1 ) Start $end
$var reg 27 * address [26:0] $end
$var integer 32 + counter [31:0] $end
$var reg 1 , flag $end
$var integer 32 - i [31:0] $end
$var reg 5 . index [4:0] $end
$var integer 32 / outfile [31:0] $end
$var integer 32 0 outfile2 [31:0] $end
$var reg 24 1 tag [23:0] $end
$scope module CPU $end
$var wire 32 2 ALUresult [31:0] $end
$var wire 32 3 Add_pc_o [31:0] $end
$var wire 2 4 EX_M [1:0] $end
$var wire 5 5 EX_Rt [4:0] $end
$var wire 2 6 EX_WB [1:0] $end
$var wire 32 7 EX_extend [31:0] $end
$var wire 1 8 Eq_flag $end
$var wire 1 9 HazardMUX_8 $end
$var wire 32 : ID_addr [31:0] $end
$var wire 32 ; ID_rs [31:0] $end
$var wire 32 < ID_rt [31:0] $end
$var wire 5 = IERs [4:0] $end
$var wire 5 > IERt [4:0] $end
$var wire 1 ? IFIDWrite $end
$var wire 32 @ IF_inst [31:0] $end
$var wire 32 A JUMP_Addr [31:0] $end
$var wire 32 B MEM_ALUOut [31:0] $end
$var wire 5 C MEM_mux3 [4:0] $end
$var wire 8 D MUX8_data [7:0] $end
$var wire 32 E MUX_5Out [31:0] $end
$var wire 32 F MUX_7Out [31:0] $end
$var wire 1 G PCWrite $end
$var wire 2 H WB_WBState [1:0] $end
$var wire 2 I WB_memState [1:0] $end
$var wire 5 J WB_mux3 [4:0] $end
$var wire 32 K am1 [31:0] $end
$var wire 1 L branch_flag $end
$var wire 1 M branch_flagT $end
$var wire 1 N clk_i $end
$var wire 8 O cm8 [7:0] $end
$var wire 32 P extended [31:0] $end
$var wire 1 Q flush $end
$var wire 32 R inst [31:0] $end
$var wire 32 S inst_addr [31:0] $end
$var wire 1 T jump_flag $end
$var wire 1 U memRead $end
$var wire 1 V memWrite $end
$var wire 1 % mem_ack_i $end
$var wire 32 W mem_addr_o [31:0] $end
$var wire 256 X mem_data_i [255:0] $end
$var wire 256 Y mem_data_o [255:0] $end
$var wire 1 # mem_enable_o $end
$var wire 1 $ mem_write_o $end
$var wire 32 Z mpc2 [31:0] $end
$var wire 32 [ mux1Out [31:0] $end
$var wire 5 \ mux3EXMEM [4:0] $end
$var wire 32 ] mux4ALU [31:0] $end
$var wire 32 ^ mux6ALU [31:0] $end
$var wire 32 _ mux7Write [31:0] $end
$var wire 1 ` rst_i $end
$var wire 1 a stall $end
$var wire 1 b start_i $end
$scope module Control $end
$var wire 32 c data_in [31:0] $end
$var reg 1 d branch $end
$var reg 8 e data_out [7:0] $end
$var reg 1 f jump $end
$upscope $end
$scope module Add_PC $end
$var wire 32 g data1_in [31:0] $end
$var wire 32 h data2_in [31:0] $end
$var wire 32 i data_o [31:0] $end
$upscope $end
$scope module ADD $end
$var wire 32 j data1_in [31:0] $end
$var wire 32 k data2_in [31:0] $end
$var wire 32 l data_o [31:0] $end
$upscope $end
$scope module shiftLeft2_32 $end
$var wire 32 m data_i [31:0] $end
$var wire 32 n data_o [31:0] $end
$upscope $end
$scope module shiftLeft2_26 $end
$var wire 26 o data_i [25:0] $end
$var reg 28 p data_o [27:0] $end
$upscope $end
$scope module MUX_1 $end
$var wire 32 q data1_i [31:0] $end
$var wire 32 r data2_i [31:0] $end
$var wire 1 L select_i $end
$var reg 32 s data_o [31:0] $end
$upscope $end
$scope module MUX_2 $end
$var wire 32 t data1_i [31:0] $end
$var wire 32 u data2_i [31:0] $end
$var wire 1 T select_i $end
$var reg 32 v data_o [31:0] $end
$upscope $end
$scope module MUX_3 $end
$var wire 5 w data1_i [4:0] $end
$var wire 5 x data2_i [4:0] $end
$var wire 1 y select_i $end
$var reg 5 z data_o [4:0] $end
$upscope $end
$scope module MUX_4 $end
$var wire 32 { data1_i [31:0] $end
$var wire 32 | data2_i [31:0] $end
$var wire 1 } select_i $end
$var reg 32 ~ data_o [31:0] $end
$upscope $end
$scope module MUX_5 $end
$var wire 32 !" data1_i [31:0] $end
$var wire 32 "" data2_i [31:0] $end
$var wire 1 #" select_i $end
$var reg 32 $" data_o [31:0] $end
$upscope $end
$scope module MUX_6 $end
$var wire 32 %" data1_i [31:0] $end
$var wire 32 &" data2_i [31:0] $end
$var wire 32 '" data3_i [31:0] $end
$var wire 2 (" select_i [1:0] $end
$var reg 32 )" data_o [31:0] $end
$upscope $end
$scope module MUX_7 $end
$var wire 32 *" data1_i [31:0] $end
$var wire 32 +" data2_i [31:0] $end
$var wire 32 ," data3_i [31:0] $end
$var wire 2 -" select_i [1:0] $end
$var reg 32 ." data_o [31:0] $end
$upscope $end
$scope module MUX_8 $end
$var wire 8 /" data1_i [7:0] $end
$var wire 8 0" data2_i [7:0] $end
$var wire 1 9 select_i $end
$var reg 8 1" data_o [7:0] $end
$upscope $end
$scope module Sign_Extend $end
$var wire 16 2" data_i [15:0] $end
$var wire 32 3" data_o [31:0] $end
$upscope $end
$scope module ALU $end
$var wire 3 4" ALUCtrl_i [2:0] $end
$var wire 32 5" data1_i [31:0] $end
$var wire 32 6" data2_i [31:0] $end
$var wire 32 7" data_o [31:0] $end
$var reg 32 8" result_temp [31:0] $end
$upscope $end
$scope module ALU_Control $end
$var wire 3 9" ALUCtrl_o [2:0] $end
$var wire 2 :" ALUOp_i [1:0] $end
$var wire 6 ;" funct_i [5:0] $end
$var reg 3 <" aluCtrl_temp [2:0] $end
$upscope $end
$scope module HazardDetection $end
$var wire 1 =" IDEX_MemRead_i $end
$var wire 5 >" IDEX_RegisterRt_i [4:0] $end
$var wire 32 ?" instr_i [31:0] $end
$var reg 1 @" IFIDWrite_o $end
$var reg 1 A" MUX8_o $end
$var reg 1 B" PCWrite_o $end
$upscope $end
$scope module IF_ID $end
$var wire 1 ? IFIDWrite_i $end
$var wire 32 C" addr_i [31:0] $end
$var wire 1 N clk_i $end
$var wire 1 Q flush_i $end
$var wire 32 D" instr_i [31:0] $end
$var wire 1 a stall_i $end
$var reg 32 E" addr_o [31:0] $end
$var reg 32 F" instr_o [31:0] $end
$upscope $end
$scope module ID_EX $end
$var wire 32 G" RS_data_i [31:0] $end
$var wire 32 H" RT_data_i [31:0] $end
$var wire 1 N clk_i $end
$var wire 4 I" ctrl_EX_i [3:0] $end
$var wire 2 J" ctrl_M_i [1:0] $end
$var wire 2 K" ctrl_WB_i [1:0] $end
$var wire 5 L" instr1115_i [4:0] $end
$var wire 5 M" instr1620_FW_i [4:0] $end
$var wire 5 N" instr1620_MUX_i [4:0] $end
$var wire 5 O" instr2125_i [4:0] $end
$var wire 32 P" sign_extend_i [31:0] $end
$var wire 1 a stall_i $end
$var reg 2 Q" ALUOp_o [1:0] $end
$var reg 1 R" ALUSrc_o $end
$var reg 32 S" RS_data_o [31:0] $end
$var reg 32 T" RT_data_o [31:0] $end
$var reg 1 U" RegDst_o $end
$var reg 2 V" ctrl_M_o [1:0] $end
$var reg 2 W" ctrl_WB_o [1:0] $end
$var reg 5 X" instr1115_o [4:0] $end
$var reg 5 Y" instr1620_FW_o [4:0] $end
$var reg 5 Z" instr1620_MUX_o [4:0] $end
$var reg 5 [" instr2125_o [4:0] $end
$var reg 32 \" sign_extend_o [31:0] $end
$upscope $end
$scope module EX_MEM $end
$var wire 32 ]" ALUOut_i [31:0] $end
$var wire 2 ^" MEM_i [1:0] $end
$var wire 2 _" WB_i [1:0] $end
$var wire 1 N clk_i $end
$var wire 5 `" mux3_i [4:0] $end
$var wire 32 a" mux7_i [31:0] $end
$var wire 1 a stall_i $end
$var reg 32 b" ALUOut_o [31:0] $end
$var reg 1 c" MemRead_o $end
$var reg 1 d" MemWrite_o $end
$var reg 2 e" WB_o [1:0] $end
$var reg 5 f" mux3_o [4:0] $end
$var reg 32 g" mux7_o [31:0] $end
$upscope $end
$scope module MEM_WB $end
$var wire 32 h" ReadData_i [31:0] $end
$var wire 2 i" WB_i [1:0] $end
$var wire 1 N clk_i $end
$var wire 32 j" immed_i [31:0] $end
$var wire 5 k" mux3_i [4:0] $end
$var wire 1 a stall_i $end
$var reg 32 l" ReadData_o [31:0] $end
$var reg 2 m" WB_o [1:0] $end
$var reg 32 n" immed_o [31:0] $end
$var reg 5 o" mux3_o [4:0] $end
$upscope $end
$scope module ForwardingUnit $end
$var wire 5 p" EX_MEM_RegRd_i [4:0] $end
$var wire 1 q" EX_MEM_regWrite_i $end
$var wire 2 r" ForwardA_o [1:0] $end
$var wire 2 s" ForwardB_o [1:0] $end
$var wire 5 t" ID_EX_RegRs [4:0] $end
$var wire 5 u" ID_EX_RegRt [4:0] $end
$var wire 5 v" MEM_WB_RegRd_i [4:0] $end
$var wire 1 w" MEM_WB_regWrite_i $end
$var reg 2 x" fa_temp [1:0] $end
$var reg 2 y" fb_temp [1:0] $end
$upscope $end
$scope module PC $end
$var wire 1 N clk_i $end
$var wire 1 z" pcEnable_i $end
$var wire 32 {" pc_i [31:0] $end
$var wire 1 ` rst_i $end
$var wire 1 a stall_i $end
$var wire 1 b start_i $end
$var reg 32 |" pc_o [31:0] $end
$upscope $end
$scope module Instruction_Memory $end
$var wire 32 }" addr_i [31:0] $end
$var wire 32 ~" instr_o [31:0] $end
$upscope $end
$scope module Registers $end
$var wire 5 !# RDaddr_i [4:0] $end
$var wire 32 "# RDdata_i [31:0] $end
$var wire 5 ## RSaddr_i [4:0] $end
$var wire 32 $# RSdata_o [31:0] $end
$var wire 5 %# RTaddr_i [4:0] $end
$var wire 32 &# RTdata_o [31:0] $end
$var wire 1 '# RegWrite_i $end
$var wire 1 N clk_i $end
$upscope $end
$scope module dcache $end
$var wire 1 (# cache_dirty $end
$var wire 256 )# cache_sram_data [255:0] $end
$var wire 1 *# cache_sram_enable $end
$var wire 5 +# cache_sram_index [4:0] $end
$var wire 24 ,# cache_sram_tag [23:0] $end
$var wire 1 -# cache_sram_write $end
$var wire 1 N clk_i $end
$var wire 1 .# hit $end
$var wire 1 % mem_ack_i $end
$var wire 32 /# mem_addr_o [31:0] $end
$var wire 256 0# mem_data_i [255:0] $end
$var wire 256 1# mem_data_o [255:0] $end
$var wire 1 # mem_enable_o $end
$var wire 1 $ mem_write_o $end
$var wire 1 U p1_MemRead_i $end
$var wire 1 V p1_MemWrite_i $end
$var wire 32 2# p1_addr_i [31:0] $end
$var wire 32 3# p1_data_i [31:0] $end
$var wire 32 4# p1_data_o [31:0] $end
$var wire 5 5# p1_index [4:0] $end
$var wire 5 6# p1_offset [4:0] $end
$var wire 1 7# p1_req $end
$var wire 1 a p1_stall_o $end
$var wire 22 8# p1_tag [21:0] $end
$var wire 256 9# r_hit_data [255:0] $end
$var wire 1 ` rst_i $end
$var wire 256 :# sram_cache_data [255:0] $end
$var wire 24 ;# sram_cache_tag [23:0] $end
$var wire 1 <# sram_dirty $end
$var wire 22 =# sram_tag [21:0] $end
$var wire 1 ># sram_valid $end
$var wire 1 ?# write_hit $end
$var integer 32 @# a [31:0] $end
$var reg 1 A# cache_we $end
$var integer 32 B# eeee [31:0] $end
$var integer 32 C# ffff [31:0] $end
$var integer 32 D# flag [31:0] $end
$var reg 1 E# mem_enable $end
$var reg 1 F# mem_write $end
$var reg 32 G# p1_data [31:0] $end
$var reg 3 H# state [2:0] $end
$var integer 32 I# temp [31:0] $end
$var reg 256 J# w_hit_data [255:0] $end
$var reg 1 K# write_back $end
$scope module dcache_tag_sram $end
$var wire 5 L# addr_i [4:0] $end
$var wire 1 N clk_i $end
$var wire 24 M# data_i [23:0] $end
$var wire 24 N# data_o [23:0] $end
$var wire 1 *# enable_i $end
$var wire 1 -# write_i $end
$upscope $end
$scope module dcache_data_sram $end
$var wire 5 O# addr_i [4:0] $end
$var wire 1 N clk_i $end
$var wire 256 P# data_i [255:0] $end
$var wire 256 Q# data_o [255:0] $end
$var wire 1 *# enable_i $end
$var wire 1 -# write_i $end
$upscope $end
$upscope $end
$upscope $end
$scope module Data_Memory $end
$var wire 1 % ack_o $end
$var wire 27 R# addr [26:0] $end
$var wire 32 S# addr_i [31:0] $end
$var wire 1 N clk_i $end
$var wire 256 T# data_i [255:0] $end
$var wire 256 U# data_o [255:0] $end
$var wire 1 # enable_i $end
$var wire 1 ` rst_i $end
$var wire 1 $ write_i $end
$var reg 1 V# ack $end
$var reg 4 W# count [3:0] $end
$var reg 256 X# data [255:0] $end
$var reg 1 Y# ok $end
$var reg 2 Z# state [1:0] $end
$upscope $end
$upscope $end
$enddefinitions $end
#0
$dumpvars
b0 Z#
0Y#
bx X#
b0 W#
0V#
bx U#
bx T#
bx00000 S#
bx R#
bx Q#
bx P#
bx O#
bx N#
b1xxxxxxxxxxxxxxxxxxxxxxx M#
bx L#
0K#
bx J#
bx I#
b0 H#
b0 G#
0F#
0E#
b0 D#
bx C#
bx B#
0A#
b101 @#
x?#
x>#
bx =#
x<#
bx ;#
bx :#
bx 9#
bx 8#
x7#
bx 6#
bx 5#
b0 4#
bx 3#
bx 2#
bx 1#
bx 0#
bx00000 /#
x.#
x-#
b1xxxxxxxxxxxxxxxxxxxxxxx ,#
bx +#
x*#
bx )#
x(#
x'#
bx &#
bx %#
bx $#
bx ##
bx "#
bx !#
b100000000010000000000000000000 ~"
b0 }"
b0 |"
b100 {"
1z"
b0 y"
b0 x"
xw"
bx v"
bx u"
bx t"
b0 s"
b0 r"
xq"
bx p"
bx o"
bx n"
bx m"
bx l"
bx k"
bx j"
bx i"
b0 h"
bx g"
bx f"
bx e"
xd"
xc"
bx b"
bx a"
bx `"
bx _"
bx ^"
bx ]"
bx \"
bx ["
bx Z"
bx Y"
bx X"
bx W"
bx V"
xU"
bx T"
bx S"
xR"
bx Q"
bx P"
bx O"
bx N"
bx M"
bx L"
bx K"
bx J"
bx I"
bx H"
bx G"
bx F"
bx E"
b100000000010000000000000000000 D"
b100 C"
0B"
0A"
0@"
bx ?"
bx >"
x="
bx <"
bx ;"
bx :"
bx 9"
bx 8"
bx 7"
bx 6"
bx 5"
bx 4"
bx 3"
bx 2"
bx 1"
b0 0"
bx /"
bx ."
b0 -"
bx ,"
bx +"
bx *"
bx )"
b0 ("
bx '"
bx &"
bx %"
bx $"
x#"
bx ""
bx !"
bx ~
x}
bx |
bx {
bx z
xy
bx x
bx w
b100 v
b0xxxxxxxxxxxxxxxxxxxxxxxxxx00 u
b100 t
b100 s
bx r
b100 q
bx00 p
bx o
bx00 n
bx m
bx l
bx k
bx00 j
b100 i
b100 h
b0 g
xf
bx e
xd
bx c
0b
xa
0`
bx _
bx ^
bx ]
bx \
b100 [
b100 Z
bx Y
bx X
bx00000 W
xV
xU
xT
b0 S
bx R
xQ
bx P
bx O
0N
xM
xL
bx K
bx J
bx I
bx H
0G
bx F
bx E
bx D
bx C
bx B
b0xxxxxxxxxxxxxxxxxxxxxxxxxx00 A
b100000000010000000000000000000 @
0?
bx >
bx =
bx <
bx ;
bx :
09
x8
bx 7
bx 6
bx 5
bx 4
b100 3
bx 2
bx 1
b101 0
b11 /
bx .
b100000 -
x,
b1 +
bx *
0)
0(
0'
bx &
0%
0$
0#
bx "
bx00000 !
$end
#12
1)
1b
1(
1`
#25
1'
1N
#50
b1100 I"
b0 J"
b10 K"
b10001100 1"
b10001100 D
b1000000000000000000000 p
b1000000000000000000000 A
b1000000000000000000000 u
b10001100 e
b10001100 O
b10001100 /"
b100 K
b100 l
b100 r
0Q
0L
b0 j
b0 n
b1000 v
b1000 Z
b1000 {"
0f
0T
0d
0M
b1000 %#
18
b0 <
b0 H"
b0 &#
b0 ##
b0 ;
b0 G"
b0 $#
b0 O"
b1000 M"
b1000 N"
b0 L"
b0 2"
b0 P
b0 m
b0 3"
b0 P"
b10000000000000000000 o
b10101100000010000000000000000000 @
b10101100000010000000000000000000 D"
b10101100000010000000000000000000 ~"
b1000 s
b1000 [
b1000 t
b0 l"
b0 ""
b100000000010000000000000000000 F"
b100000000010000000000000000000 R
b100000000010000000000000000000 c
b100000000010000000000000000000 ?"
b100 E"
b100 :
b100 k
b100 |"
b1000 3
b1000 i
b1000 q
b1000 C"
b100 S
b100 g
b100 }"
b10 +
b1 D#
0'
0N
#75
1'
1N
#100
b1 J"
b0 K"
b11100 1"
b11100 D
b11100 e
b11100 O
b11100 /"
b0 8"
b0 2
b0 7"
b0 ]"
b1100 v
b1100 Z
b1100 {"
b10 <"
b10 4"
b10 9"
0="
b0 ."
b0 F
b0 {
b0 a"
b0 )"
b0 ^
b0 5"
b0 ~
b0 ]
b0 6"
b0 ;"
b1000 z
b1000 \
b1000 `"
b100000000010000001000100010001 @
b100000000010000001000100010001 D"
b100000000010000001000100010001 ~"
b1100 s
b1100 [
b1100 t
b10101100000010000000000000000000 F"
b10101100000010000000000000000000 R
b10101100000010000000000000000000 c
b10101100000010000000000000000000 ?"
b1000 E"
b1000 K
b1000 l
b1000 r
b1000 :
b1000 k
1R"
1}
b10 Q"
b10 :"
0U"
0y
b0 V"
b0 4
b0 ^"
b10 W"
b10 6
b10 _"
b0 T"
b0 *"
b0 S"
b0 %"
b0 \"
b0 7
b0 |
b0 ["
b0 =
b0 t"
b1000 Y"
b1000 >
b1000 u"
b1000 Z"
b1000 5
b1000 w
b1000 >"
b0 X"
b0 x
b1000 |"
b1100 3
b1100 i
b1100 q
b1100 C"
b1000 S
b1000 g
b1000 }"
b11 +
b10 D#
0'
0N
#125
1'
1N
#150
b0 J"
b10 K"
b10001100 1"
b10001100 D
b1000000100010001000100 p
b1000000100010001000100 A
b1000000100010001000100 u
b10001100 e
b10001100 O
b10001100 /"
0.#
b0 R#
b0 =#
0<#
0>#
0-#
0a
b0 B#
b11111 C#
b101 @#
b0 I#
b0 ;#
b0 N#
b0 :#
b0 Q#
b0 9#
b0 "
b0 Y
b0 1#
b0 T#
b0 !
b0 W
b0 /#
b0 S#
b100010001000100 j
b100010001000100 n
b10000 v
b10000 Z
b10000 {"
0(#
0?#
0*#
07#
b10 y"
b10 -"
b10 s"
b0 J#
b0 6#
b0 5#
b0 +#
b0 L#
b0 O#
b100000000000000000000000 ,#
b100000000000000000000000 M#
b0 8#
1q"
b10 L"
b1000100010001 2"
b1000100010001 P
b1000100010001 m
b1000100010001 3"
b1000100010001 P"
b10000001000100010001 o
b10101100000010000000000000000100 @
b10101100000010000000000000000100 D"
b10101100000010000000000000000100 ~"
b10000 s
b10000 [
b10000 t
0d"
0V
0c"
0U
b1000 f"
b1000 C
b1000 k"
b1000 p"
b0 g"
b0 _
b0 3#
b0 b"
b0 B
b0 '"
b0 ,"
b0 j"
b0 2#
b10 e"
b10 I
b10 i"
b1 V"
b1 4
b1 ^"
b0 W"
b0 6
b0 _"
b100000000010000001000100010001 F"
b100000000010000001000100010001 R
b100000000010000001000100010001 c
b100000000010000001000100010001 ?"
b1100 E"
b100010001010000 K
b100010001010000 l
b100010001010000 r
b1100 :
b1100 k
b1100 |"
b10000 3
b10000 i
b10000 q
b10000 C"
b1100 S
b1100 g
b1100 }"
b100 +
b11 D#
0'
0N
#175
1'
1N
#200
b1 J"
b0 K"
b11100 1"
b11100 D
b1000000000000000010000 p
b1000000000000000010000 A
b1000000000000000010000 u
b11100 e
b11100 O
b11100 /"
b10000 j
b10000 n
b1000100010001 8"
b1000100010001 2
b1000100010001 7"
b1000100010001 ]"
1a
b10100 v
b10100 Z
b10100 {"
b0 L"
b100 2"
b100 P
b100 m
b100 3"
b100 P"
b10000000000000000100 o
b1000100010001 ~
b1000100010001 ]
b1000100010001 6"
b10001 ;"
1*#
17#
0q"
b1 y"
b1 -"
b1 s"
b0 $"
b0 E
b0 &"
b0 +"
b0 "#
1'#
1w"
0#"
b100000000010000010001000100010 @
b100000000010000010001000100010 D"
b100000000010000010001000100010 ~"
b10100 s
b10100 [
b10100 t
b10101100000010000000000000000100 F"
b10101100000010000000000000000100 R
b10101100000010000000000000000100 c
b10101100000010000000000000000100 ?"
b10000 E"
b100000 K
b100000 l
b100000 r
b10000 :
b10000 k
b0 V"
b0 4
b0 ^"
b10 W"
b10 6
b10 _"
b1000100010001 \"
b1000100010001 7
b1000100010001 |
b10 X"
b10 x
1d"
1V
b0 e"
b0 I
b0 i"
b1000 o"
b1000 J
b1000 v"
b1000 !#
b0 n"
b0 !"
b10 m"
b10 H
b10000 |"
b10100 3
b10100 i
b10100 q
b10100 C"
b10000 S
b10000 g
b10000 }"
b101 +
0,
b100 D#
0'
0N
#225
1'
1N
#250
b100 H#
b110 +
1,
b101 D#
0'
0N
#275
1'
1N
#300
b1 H#
1E#
1#
b111 +
b110 D#
0'
0N
#325
1'
1N
#350
b1 Z#
b1 W#
b1000 +
b111 D#
0'
0N
#375
1'
1N
#400
b10 W#
b1001 +
b1000 D#
0'
0N
#425
1'
1N
#450
b11 W#
b1010 +
b1001 D#
0'
0N
#475
1'
1N
#500
b100 W#
b1011 +
b1010 D#
0'
0N
#525
1'
1N
#550
b101 W#
b1100 +
b1011 D#
0'
0N
#575
1'
1N
#600
b110 W#
b1101 +
b1100 D#
0'
0N
#625
1'
1N
#650
b10 Z#
1Y#
b1110 +
b1101 D#
0'
0N
#675
1'
1N
#700
b11 Z#
1V#
1%
0Y#
b0 W#
b101 )#
b101 P#
b101 X#
b101 &
b101 X
b101 0#
b101 U#
b1111 +
b1110 D#
0'
0N
#725
1'
1N
#750
1-#
b0 Z#
0V#
0%
b10 H#
1A#
0E#
0#
b10000 +
b1111 D#
0'
0N
#775
1'
1N
#800
0a
b0 )#
b0 P#
1(#
b110000000000000000000000 ,#
b110000000000000000000000 M#
1?#
1.#
1>#
b101 @#
b100000000000000000000000 ;#
b100000000000000000000000 N#
b101 :#
b101 Q#
b101 9#
b101 "
b101 Y
b101 1#
b101 T#
1-#
b0 H#
0A#
b10001 +
b10000 D#
0'
0N
#825
1'
1N
#850
b0 J"
b10 K"
b10001100 1"
b10001100 D
b0 G#
b1000001000100010001000 p
b1000001000100010001000 A
b1000001000100010001000 u
b10001100 e
b10001100 O
b10001100 /"
b10001000 R#
b101 )#
b101 P#
0.#
b1000100010001 ."
b1000100010001 F
b1000100010001 {
b1000100010001 a"
0>#
0-#
b10000000 B#
b10011111 C#
b10 I#
b1111111 @#
b1000100000000 !
b1000100000000 W
b1000100000000 /#
b1000100000000 S#
b10 y"
b10 -"
b10 s"
b100 8"
b100 2
b100 7"
b100 ]"
b1000100010001000 j
b1000100010001000 n
b11000 v
b11000 Z
b11000 {"
b0 :#
b0 Q#
b0 9#
b0 "
b0 Y
b0 1#
b0 T#
b0 ;#
b0 N#
0'#
0w"
0*#
07#
0(#
0?#
b10001 6#
b1000 5#
b1000 +#
b1000 L#
b1000 O#
b100000000000000000000100 ,#
b100000000000000000000100 M#
b100 8#
1q"
b100 ~
b100 ]
b100 6"
b100 ;"
b100 L"
b10001000100010 2"
b10001000100010 P
b10001000100010 m
b10001000100010 3"
b10001000100010 P"
b10000010001000100010 o
b10101100000010000000000000001000 @
b10101100000010000000000000001000 D"
b10101100000010000000000000001000 ~"
b11000 s
b11000 [
b11000 t
b0 m"
b0 H
0d"
0V
b1000100010001 b"
b1000100010001 B
b1000100010001 '"
b1000100010001 ,"
b1000100010001 j"
b1000100010001 2#
b10 e"
b10 I
b10 i"
b1 V"
b1 4
b1 ^"
b0 W"
b0 6
b0 _"
b100 \"
b100 7
b100 |
b0 X"
b0 x
b100000000010000010001000100010 F"
b100000000010000010001000100010 R
b100000000010000010001000100010 c
b100000000010000010001000100010 ?"
b10100 E"
b1000100010011100 K
b1000100010011100 l
b1000100010011100 r
b10100 :
b10100 k
b10100 |"
b11000 3
b11000 i
b11000 q
b11000 C"
b10100 S
b10100 g
b10100 }"
b10010 +
0,
b10001 D#
0'
0N
#875
1'
1N
#900
b1 J"
b0 K"
b11100 1"
b11100 D
b1000000000000000100000 p
b1000000000000000100000 A
b1000000000000000100000 u
b11100 e
b11100 O
b11100 /"
1-#
b100010001000100000000000000000000000000000000 )#
b100010001000100000000000000000000000000000000 P#
1(#
1?#
1.#
b0 R#
1<#
1>#
b100000 j
b100000 n
b10001000100010 8"
b10001000100010 2
b10001000100010 7"
b10001000100010 ]"
0a
b110000000000000000000000 ;#
b110000000000000000000000 N#
b100000 B#
b111111 C#
b101 @#
b1 I#
b0 !
b0 W
b0 /#
b0 S#
b1 y"
b1 -"
b1 s"
b11100 v
b11100 Z
b11100 {"
b0 L"
b1000 2"
b1000 P
b1000 m
b1000 3"
b1000 P"
b10000000000000001000 o
b10001000100010 ~
b10001000100010 ]
b10001000100010 6"
b100010 ;"
1*#
17#
b100010001000100000000000000000000000000000000 J#
b100 6#
b0 5#
b0 +#
b0 L#
b0 O#
b110000000000000000000000 ,#
b110000000000000000000000 M#
b0 8#
b1000100010001 ."
b1000100010001 F
b1000100010001 {
b1000100010001 a"
0q"
b1000100010001 $"
b1000100010001 E
b1000100010001 &"
b1000100010001 +"
b1000100010001 "#
1'#
1w"
b100000000010000011001100110011 @
b100000000010000011001100110011 D"
b100000000010000011001100110011 ~"
b11100 s
b11100 [
b11100 t
b10101100000010000000000000001000 F"
b10101100000010000000000000001000 R
b10101100000010000000000000001000 c
b10101100000010000000000000001000 ?"
b11000 E"
b111000 K
b111000 l
b111000 r
b11000 :
b11000 k
b0 V"
b0 4
b0 ^"
b10 W"
b10 6
b10 _"
b10001000100010 \"
b10001000100010 7
b10001000100010 |
b100 X"
b100 x
1d"
1V
b1000100010001 g"
b1000100010001 _
b1000100010001 3#
b100 b"
b100 B
b100 '"
b100 ,"
b100 j"
b100 2#
b0 e"
b0 I
b0 i"
b1000100010001 n"
b1000100010001 !"
b10 m"
b10 H
b11000 |"
b11100 3
b11100 i
b11100 q
b11100 C"
b11000 S
b11000 g
b11000 }"
b10011 +
b10010 D#
0'
0N
#925
08
b1000100010001 <
b1000100010001 H"
b1000100010001 &#
1'
1N
#950
b0 J"
b10 K"
b10001100 1"
b10001100 D
b0 G#
b1000001100110011001100 p
b1000001100110011001100 A
b1000001100110011001100 u
b10001100 e
b10001100 O
b10001100 /"
b100010001 R#
b101 )#
b101 P#
0<#
0>#
0.#
b10001000100010 ."
b10001000100010 F
b10001000100010 {
b10001000100010 a"
0-#
b0 J#
b0 B#
b11111 C#
b11111111111111111111111111111111 @#
b1 I#
b0 ;#
b0 N#
b10001000100000 !
b10001000100000 W
b10001000100000 /#
b10001000100000 S#
b10 y"
b10 -"
b10 s"
b1000 8"
b1000 2
b1000 7"
b1000 ]"
b1100110011001100 j
b1100110011001100 n
b100000 v
b100000 Z
b100000 {"
b100 $"
b100 E
b100 &"
b100 +"
b100 "#
0'#
0w"
0*#
07#
0(#
0?#
b10 6#
b10001 5#
b10001 +#
b10001 L#
b10001 O#
b100000000000000000001000 ,#
b100000000000000000001000 M#
b1000 8#
1q"
b1000 ~
b1000 ]
b1000 6"
b1000 ;"
b110 L"
b11001100110011 2"
b11001100110011 P
b11001100110011 m
b11001100110011 3"
b11001100110011 P"
b10000011001100110011 o
b10101100000010000000000000001100 @
b10101100000010000000000000001100 D"
b10101100000010000000000000001100 ~"
b100000 s
b100000 [
b100000 t
b100 n"
b100 !"
b0 m"
b0 H
0d"
0V
b10001000100010 b"
b10001000100010 B
b10001000100010 '"
b10001000100010 ,"
b10001000100010 j"
b10001000100010 2#
b10 e"
b10 I
b10 i"
b1 V"
b1 4
b1 ^"
b0 W"
b0 6
b0 _"
b1000100010001 T"
b1000100010001 *"
b1000 \"
b1000 7
b1000 |
b0 X"
b0 x
b100000000010000011001100110011 F"
b100000000010000011001100110011 R
b100000000010000011001100110011 c
b100000000010000011001100110011 ?"
b11100 E"
b1100110011101000 K
b1100110011101000 l
b1100110011101000 r
b11100 :
b11100 k
b11100 |"
b100000 3
b100000 i
b100000 q
b100000 C"
b11100 S
b11100 g
b11100 }"
b10100 +
b10011 D#
0'
0N
#975
1'
1N
